<?xml version="1.0" standalone="no"?>
<!DOCTYPE svg PUBLIC "-//W3C//DTD SVG 1.1//EN" "http://www.w3.org/Graphics/SVG/1.1/DTD/svg11.dtd" >
<svg>
<metadata>
Created by FontForge 20110222 at Thu Aug 28 03:55:48 2014
 By deploy user
Copyright (c) 1990, 2002 Adobe Systems Incorporated.  All Rights Reserved. (c) 1981, 2002 Heidelberger Druckmaschinen AG. All rights reserved.
</metadata>
<defs>
<font id="HelveticaNeueLTStd-Cn" horiz-adv-x="204" >
  <font-face 
    font-family="HelveticaNeueLT Std Cn"
    font-weight="400"
    font-stretch="condensed"
    units-per-em="1000"
    panose-1="2 11 5 6 3 5 2 3 2 4"
    ascent="714"
    descent="-286"
    x-height="536"
    cap-height="714"
    bbox="-164 -212 1000 932"
    underline-thickness="50"
    underline-position="-50"
    unicode-range="U+0020-FB02"
  />
<missing-glyph horiz-adv-x="500" 
d="M0 0v700h500v-700h-500zM250 395l170 255h-340zM280 350l170 -255v510zM80 50h340l-170 255zM50 605v-510l170 255z" />
    <glyph glyph-name="fi" unicode="fi" horiz-adv-x="463" 
d="M80 0v470h-78v66h78v63q0 123 116 123h61v-72h-39q-54 0 -54 -51v-63h92v-66h-92v-470h-84zM319 0v536h84v-536h-84zM319 618v96h84v-96h-84z" />
    <glyph glyph-name="fl" unicode="fl" horiz-adv-x="463" 
d="M80 0v470h-78v66h78v63q0 123 116 123h61v-72h-39q-54 0 -54 -51v-63h92v-66h-92v-470h-84zM319 0v714h84v-714h-84z" />
    <glyph glyph-name=".notdef" horiz-adv-x="500" 
d="M0 0v700h500v-700h-500zM250 395l170 255h-340zM280 350l170 -255v510zM80 50h340l-170 255zM50 605v-510l170 255z" />
    <glyph glyph-name=".null" horiz-adv-x="0" 
 />
    <glyph glyph-name="nonmarkingreturn" horiz-adv-x="333" 
 />
    <glyph glyph-name="space" unicode=" " horiz-adv-x="240" 
 />
    <glyph glyph-name="exclam" unicode="!" horiz-adv-x="258" 
d="M99 186l-16 528h92l-16 -528h-60zM83 0v96h92v-96h-92z" />
    <glyph glyph-name="quotedbl" unicode="&#x22;" horiz-adv-x="407" 
d="M87 460v254h66v-254h-66zM254 460v254h66v-254h-66z" />
    <glyph glyph-name="numbersign" unicode="#" horiz-adv-x="480" 
d="M79 0l26 205h-82v66h90l19 154h-87v66h96l25 203h66l-25 -203h106l25 203h66l-25 -203h78v-66h-87l-19 -154h83v-66h-91l-26 -205h-66l26 205h-106l-26 -205h-66zM198 425l-19 -154h106l19 154h-106z" />
    <glyph glyph-name="dollar" unicode="$" horiz-adv-x="480" 
d="M259 306v-248q47 4 77.5 37t30.5 84t-28 79.5t-80 47.5zM217 405v231q-95 -12 -95 -111q0 -47 24.5 -74.5t70.5 -45.5zM217 708v58h42v-58q177 -9 180 -194h-88q0 113 -92 122v-245q6 -2 27.5 -9t29 -9.5t27 -10.5t27 -13t23.5 -14.5t22.5 -18.5t17 -22.5t15 -28t8 -33
t3.5 -39.5q0 -103 -58 -152.5t-142 -54.5v-94h-42v94q-108 4 -152 61.5t-44 170.5h88q0 -27 1 -44t7 -40t17 -37t32 -25t51 -14v262q-31 10 -46 15.5t-41.5 17.5t-40.5 25t-30 32.5t-22.5 46t-6.5 59.5q0 28 7 56t25.5 59t58 52t96.5 25z" />
    <glyph glyph-name="percent" unicode="%" horiz-adv-x="759" 
d="M177 378q27 0 40.5 19.5t16 44.5t2.5 74t-2.5 74t-16 44.5t-40.5 19.5t-40.5 -19.5t-16 -44.5t-2.5 -74t2.5 -74t16 -44.5t40.5 -19.5zM186 -14l310 722h70l-310 -722h-70zM582 40q27 0 40.5 19.5t16 44.5t2.5 74t-2.5 74t-16 44.5t-40.5 19.5t-40.5 -19.5t-16 -44.5
t-2.5 -74t2.5 -74t16 -44.5t40.5 -19.5zM177 324q-35 0 -59.5 11t-38 27.5t-21.5 43.5t-10 51.5t-2 58.5t2 58.5t10 51.5t21.5 43.5t38 27.5t59.5 11t59.5 -11t38 -27.5t21.5 -43.5t10 -51.5t2 -58.5t-2 -58.5t-10 -51.5t-21.5 -43.5t-38 -27.5t-59.5 -11zM582 -14
q-35 0 -59.5 11t-38 27.5t-21.5 43.5t-10 51.5t-2 58.5t2 58.5t10 51.5t21.5 43.5t38 27.5t59.5 11t59.5 -11t38 -27.5t21.5 -43.5t10 -51.5t2 -58.5t-2 -58.5t-10 -51.5t-21.5 -43.5t-38 -27.5t-59.5 -11z" />
    <glyph glyph-name="ampersand" unicode="&#x26;" horiz-adv-x="556" 
d="M238 453l19 18q24 23 32.5 32.5t20 31t11.5 43.5q0 31 -20 50.5t-52 19.5t-51.5 -19.5t-19.5 -50.5q0 -36 43 -101zM372 127l-157 227q-102 -61 -102 -163q0 -63 38 -98t93 -35q68 0 128 69zM275 400l141 -202q21 55 28 139h78q0 -41 -19 -112t-39 -96l92 -129h-95
l-48 67q-45 -43 -83.5 -62t-92.5 -19q-61 0 -105.5 21t-66 54t-31 63.5t-9.5 59.5q0 110 97 185l52 39l-22 36q-17 27 -26 42t-17.5 40t-8.5 48q0 62 43 101t105 39q151 0 151 -136q0 -47 -25.5 -82t-72.5 -74z" />
    <glyph glyph-name="quotesingle" unicode="'" horiz-adv-x="240" 
d="M87 460v254h66v-254h-66z" />
    <glyph glyph-name="parenleft" unicode="(" horiz-adv-x="241" 
d="M189 714h48q-110 -181 -110 -449q0 -236 110 -449h-48q-70 96 -108 213t-38 236q0 249 146 449z" />
    <glyph glyph-name="parenright" unicode=")" horiz-adv-x="241" 
d="M52 -184h-48q110 181 110 449q0 236 -110 449h48q70 -96 108 -213t38 -236q0 -249 -146 -449z" />
    <glyph glyph-name="asterisk" unicode="*" horiz-adv-x="352" 
d="M146 595v119h60v-119l107 41l22 -58l-113 -34l76 -94l-50 -37l-72 102l-72 -102l-50 37l76 94l-113 34l22 58z" />
    <glyph glyph-name="plus" unicode="+" horiz-adv-x="600" 
d="M267 0v220h-220v66h220v220h66v-220h220v-66h-220v-220h-66z" />
    <glyph glyph-name="comma" unicode="," horiz-adv-x="240" 
d="M74 0v106h92v-87q0 -34 -2.5 -56t-11 -46.5t-28 -40.5t-50.5 -24v47q26 12 35 29t9 48v24h-44z" />
    <glyph glyph-name="hyphen" unicode="-" horiz-adv-x="352" 
d="M54 245v78h244v-78h-244z" />
    <glyph glyph-name="period" unicode="." horiz-adv-x="240" 
d="M74 0v106h92v-106h-92z" />
    <glyph glyph-name="slash" unicode="/" horiz-adv-x="278" 
d="M-10 -14l232 742h66l-232 -742h-66z" />
    <glyph glyph-name="zero" unicode="0" horiz-adv-x="480" 
d="M240 -14q-46 0 -81 14t-56.5 42.5t-35 59t-19.5 76t-8 81t-2 85.5q0 47 2 82t8 81t19.5 78.5t35 62t56.5 45t81 15.5t81 -14t56.5 -42.5t35 -59.5t19.5 -77.5t8 -82.5t2 -88q0 -46 -2 -79.5t-8 -79t-19.5 -77.5t-35 -61.5t-56.5 -45t-81 -15.5zM126 344q0 -44 1 -74
t4.5 -67.5t11 -61.5t19.5 -46t32 -32.5t46 -10.5t46 10.5t32 32.5t19.5 46t11 61.5t4.5 67.5t1 74q0 46 -1 77t-4.5 69t-11 62t-20 46.5t-32 33t-45.5 10.5t-45.5 -10.5t-32 -33t-20 -46.5t-11 -62t-4.5 -69t-1 -77z" />
    <glyph glyph-name="one" unicode="1" horiz-adv-x="480" 
d="M67 532v60q32 2 52.5 4.5t45.5 10t40 19t25.5 32.5t11.5 50h60v-708h-84v532h-151z" />
    <glyph glyph-name="two" unicode="2" horiz-adv-x="480" 
d="M438 78v-78h-396q0 158 153 290l58 49q48 42 71 79t23 91q0 52 -25 89.5t-78 37.5q-112 0 -112 -153h-88q0 225 201 225q47 0 82.5 -14t55.5 -34.5t32 -47.5t16 -49t4 -44q0 -76 -29.5 -126.5t-94.5 -106.5l-100 -87q-63 -53 -77 -121h304z" />
    <glyph glyph-name="three" unicode="3" horiz-adv-x="480" 
d="M180 333v66h44q54 0 81 34.5t27 90.5q0 118 -92 118q-102 0 -102 -138h-88q0 95 46.5 149.5t141.5 54.5q53 0 90.5 -17t56.5 -46t27 -58.5t8 -62.5q0 -56 -28.5 -97.5t-81.5 -54.5v-2q131 -26 131 -165q0 -100 -51 -159.5t-150 -59.5q-54 0 -93.5 18t-59.5 42t-31.5 55
t-14 49t-2.5 33v9h88q0 -56 28.5 -98t84.5 -42q113 0 113 146q0 64 -32 99.5t-96 35.5h-45z" />
    <glyph glyph-name="four" unicode="4" horiz-adv-x="480" 
d="M284 570l-178 -327h180v327h-2zM30 250l256 458h84v-465h80v-72h-80v-171h-84v171h-256v79z" />
    <glyph glyph-name="five" unicode="5" horiz-adv-x="480" 
d="M58 331l39 363h316v-78h-249l-28 -205l2 -2q44 53 124 53q81 0 129.5 -61.5t48.5 -171.5q0 -107 -50.5 -175t-155.5 -68q-48 0 -84.5 15t-56.5 37t-32.5 50.5t-16.5 51t-4 42.5h88q0 -18 4 -36.5t14.5 -41.5t33.5 -37.5t56 -14.5q35 0 60 18t36 48t15.5 58t4.5 60
q0 67 -28 113.5t-90 46.5q-41 0 -70.5 -26t-29.5 -43z" />
    <glyph glyph-name="six" unicode="6" horiz-adv-x="480" 
d="M429 538h-88q0 46 -24.5 75t-68.5 29q-33 0 -58 -19t-37 -44.5t-19.5 -59t-9 -53.5t-1.5 -37v-56h2q15 28 49.5 53.5t85.5 25.5q90 0 137.5 -60.5t47.5 -163.5q0 -107 -52 -174.5t-148 -67.5q-47 0 -83.5 14t-58.5 41t-36.5 57t-21 72t-8.5 75t-2 77q0 50 2 86t8 85.5
t20.5 83.5t37.5 66t60.5 48.5t86.5 16.5q57 0 96.5 -21t55.5 -53t21.5 -54.5t5.5 -41.5zM133 216q0 -42 9 -76.5t35.5 -61t67.5 -26.5t67.5 26.5t35.5 61t9 76.5q0 164 -112 164t-112 -164z" />
    <glyph glyph-name="seven" unicode="7" horiz-adv-x="480" 
d="M38 616v78h404v-73q-83 -109 -139 -243q-81 -195 -97 -378h-98q20 164 86 322q64 158 168 294h-324z" />
    <glyph glyph-name="eight" unicode="8" horiz-adv-x="480" 
d="M37 195q0 141 125 182q-53 22 -78 58t-25 93q0 85 48.5 132.5t132.5 47.5t132.5 -47.5t48.5 -132.5q0 -57 -25 -93t-78 -58q125 -41 125 -182q0 -38 -10 -72.5t-31.5 -66.5t-63 -51t-98.5 -19t-98.5 19t-63 51t-31.5 66.5t-10 72.5zM240 642q-47 0 -70 -31.5t-23 -84.5
q0 -52 23 -84t70 -32q46 0 69.5 32t23.5 84q0 53 -23.5 84.5t-69.5 31.5zM125 198q0 -66 28 -106t87 -40t87 40t28 106t-28 106t-87 40t-87 -40t-28 -106z" />
    <glyph glyph-name="nine" unicode="9" horiz-adv-x="480" 
d="M51 156h88q0 -45 24.5 -74.5t68.5 -29.5q33 0 58 19.5t37 44.5t19.5 59t9 53.5t1.5 36.5v56h-2q-15 -28 -49.5 -53.5t-85.5 -25.5q-90 0 -137.5 60.5t-47.5 163.5q0 107 52 174.5t148 67.5q47 0 83.5 -14t58.5 -41.5t36.5 -57t21 -72t8.5 -75.5t2 -76q0 -50 -2 -86
t-8 -85.5t-20.5 -83.5t-37.5 -66t-60.5 -48.5t-86.5 -16.5q-57 0 -96.5 21t-55.5 53t-21.5 54.5t-5.5 41.5zM347 478q0 67 -26 115.5t-86 48.5t-86 -48.5t-26 -115.5q0 -164 112 -164t112 164z" />
    <glyph glyph-name="colon" unicode=":" horiz-adv-x="240" 
d="M74 400v106h92v-106h-92zM74 0v106h92v-106h-92z" />
    <glyph glyph-name="semicolon" unicode=";" horiz-adv-x="240" 
d="M74 0v106h92v-87q0 -34 -2.5 -56t-11 -46.5t-28 -40.5t-50.5 -24v47q26 12 35 29t9 48v24h-44zM74 400v106h92v-106h-92z" />
    <glyph glyph-name="less" unicode="&#x3c;" horiz-adv-x="600" 
d="M47 223v60l506 231v-66l-428 -195l428 -195v-66z" />
    <glyph glyph-name="equal" unicode="=" horiz-adv-x="600" 
d="M47 322v66h506v-66h-506zM47 118v66h506v-66h-506z" />
    <glyph glyph-name="greater" unicode="&#x3e;" horiz-adv-x="600" 
d="M47 -8v66l428 195l-428 195v66l506 -231v-60z" />
    <glyph glyph-name="question" unicode="?" horiz-adv-x="444" 
d="M119 504h-84q0 95 47 156.5t139 61.5q88 0 138 -52.5t50 -135.5q0 -80 -50 -141q-5 -6 -39 -44t-39 -44q-32 -41 -32 -100v-19h-78q0 87 19 123q10 19 29.5 43.5t42 49.5t29.5 35q30 39 30 102q0 47 -25.5 79t-71.5 32q-105 0 -105 -146zM165 0v96h92v-96h-92z" />
    <glyph glyph-name="at" unicode="@" horiz-adv-x="800" 
d="M240 293q0 -42 26.5 -69t67.5 -27q64 0 109.5 73t45.5 139q0 37 -22.5 68.5t-58.5 31.5q-69 0 -118.5 -70.5t-49.5 -145.5zM524 487l22 63h56l-84 -282q-9 -31 -9 -45q0 -11 7.5 -18.5t21.5 -7.5q67 0 117 66.5t50 151.5q0 112 -87.5 182.5t-217.5 70.5q-129 0 -217 -90
t-88 -221q0 -133 88 -222t217 -89q189 0 271 111h63q-48 -83 -133.5 -127t-200.5 -44q-154 0 -262.5 108.5t-108.5 262.5t108.5 262.5t262.5 108.5q162 0 266.5 -87t104.5 -222q0 -82 -40.5 -148.5t-98.5 -100t-119 -33.5q-63 0 -70 59h-2q-57 -59 -125 -59
q-57 0 -99.5 42.5t-42.5 107.5q0 109 66.5 195.5t167.5 86.5q86 0 114 -82h2z" />
    <glyph glyph-name="A" unicode="A" horiz-adv-x="500" 
d="M-8 0l206 714h118l192 -714h-92l-51 196h-228l-53 -196h-92zM254 613l-99 -345h192l-91 345h-2z" />
    <glyph glyph-name="B" unicode="B" horiz-adv-x="519" 
d="M146 340v-268h120q65 0 95 37t30 95q0 70 -39 103t-101 33h-105zM58 0v714h219q79 0 131 -43t52 -140q0 -50 -28.5 -92.5t-75.5 -56.5v-2q64 -15 95.5 -61.5t31.5 -114.5q0 -106 -58 -155t-173 -49h-194zM146 642v-236h101q14 0 27 1.5t31 8.5t31 19t22.5 35.5t9.5 54.5
q0 117 -123 117h-99z" />
    <glyph glyph-name="C" unicode="C" horiz-adv-x="519" 
d="M403 245h92q-7 -115 -58 -187t-159 -72q-59 0 -102 22t-67 56t-38.5 85.5t-18.5 99t-4 108.5q0 60 5 108.5t19.5 99.5t39 85t67 56t99.5 22q205 0 211 -222h-92q-4 150 -119 150q-44 0 -72.5 -22t-42.5 -67t-18.5 -92.5t-4.5 -117.5t4.5 -117.5t18.5 -92.5t42.5 -67
t72.5 -22q38 0 64 16t38 46t17 58t6 67z" />
    <glyph glyph-name="D" unicode="D" horiz-adv-x="556" 
d="M155 642v-570h92q44 0 76 18t49.5 44.5t27.5 67t13 75t3 79.5q0 41 -1.5 69.5t-6.5 65t-16.5 61t-29.5 46.5t-47 33t-68 11h-92zM67 0v714h191q54 0 95.5 -12t68 -37t44.5 -55t27 -73.5t12 -84t3 -95.5q0 -357 -241 -357h-200z" />
    <glyph glyph-name="E" unicode="E" horiz-adv-x="463" 
d="M58 0v714h369v-78h-281v-224h265v-78h-265v-256h293v-78h-381z" />
    <glyph glyph-name="F" unicode="F" horiz-adv-x="444" 
d="M58 0v714h369v-78h-281v-224h265v-78h-265v-334h-88z" />
    <glyph glyph-name="G" unicode="G" horiz-adv-x="537" 
d="M489 516h-92q-7 140 -119 140q-44 0 -72.5 -22t-42.5 -67t-18.5 -92.5t-4.5 -117.5t4.5 -117.5t18.5 -92.5t42.5 -67t72.5 -22q35 0 60.5 16.5t38.5 40t20.5 59.5t9.5 63t2 62h-141v72h221v-371h-66v97h-2q-15 -48 -56.5 -79.5t-97.5 -31.5q-54 0 -94 21t-63.5 54
t-37.5 83t-19 100t-5 113q0 60 5 108.5t19.5 99.5t39 85t67 56t99.5 22q42 0 76 -10t55.5 -25t37.5 -37.5t23.5 -40.5t12 -41.5t5.5 -34t1 -23.5z" />
    <glyph glyph-name="H" unicode="H" horiz-adv-x="537" 
d="M479 714v-714h-88v344h-245v-344h-88v714h88v-292h245v292h88z" />
    <glyph glyph-name="I" unicode="I" 
d="M58 0v714h88v-714h-88z" />
    <glyph glyph-name="J" unicode="J" horiz-adv-x="426" 
d="M368 714v-509q0 -106 -38 -162.5t-141 -56.5q-84 0 -125.5 46.5t-41.5 116.5v59h84v-52q0 -98 82 -98q56 0 74 34.5t18 115.5v506h88z" />
    <glyph glyph-name="K" unicode="K" horiz-adv-x="500" 
d="M58 0v714h88v-346h2l247 346h98l-216 -298l234 -416h-98l-193 344l-74 -101v-243h-88z" />
    <glyph glyph-name="L" unicode="L" horiz-adv-x="444" 
d="M58 0v714h88v-636h290v-78h-378z" />
    <glyph glyph-name="M" unicode="M" horiz-adv-x="704" 
d="M60 0v714h148l143 -566h2l143 566h148v-714h-88v624h-2l-158 -624h-88l-158 624h-2v-624h-88z" />
    <glyph glyph-name="N" unicode="N" horiz-adv-x="556" 
d="M58 0v714h114l236 -596h2v596h88v-714h-121l-229 578h-2v-578h-88z" />
    <glyph glyph-name="O" unicode="O" horiz-adv-x="556" 
d="M278 728q57 0 99.5 -22t67 -56t39 -85t19.5 -99.5t5 -108.5t-5 -108.5t-19.5 -99.5t-39 -85t-67 -56t-99.5 -22t-99.5 22t-67 56t-39 85t-19.5 99.5t-5 108.5t5 108.5t19.5 99.5t39 85t67 56t99.5 22zM278 656q-44 0 -72.5 -22t-42.5 -67t-18.5 -92.5t-4.5 -117.5
t4.5 -117.5t18.5 -92.5t42.5 -67t72.5 -22t72.5 22t42.5 67t18.5 92.5t4.5 117.5t-4.5 117.5t-18.5 92.5t-42.5 67t-72.5 22z" />
    <glyph glyph-name="P" unicode="P" horiz-adv-x="481" 
d="M58 0v714h182q20 0 32.5 -0.5t38 -4.5t43 -11t39.5 -22.5t35.5 -36.5t23 -54.5t9.5 -75.5q0 -98 -56.5 -152.5t-149.5 -54.5h-109v-302h-88zM146 642v-268h105q51 0 84.5 35.5t33.5 103.5q0 129 -124 129h-99z" />
    <glyph glyph-name="Q" unicode="Q" horiz-adv-x="556" 
d="M473 -43l-72 65q-49 -36 -123 -36q-57 0 -99.5 22t-67 56t-39 85t-19.5 99.5t-5 108.5t5 108.5t19.5 99.5t39 85t67 56t99.5 22t99.5 -22t67 -56t39 -85t19.5 -99.5t5 -108.5q0 -193 -58 -282l72 -66zM343 75l-69 62l49 54l66 -60q27 66 27 226q0 70 -4.5 117.5
t-18.5 92.5t-42.5 67t-72.5 22t-72.5 -22t-42.5 -67t-18.5 -92.5t-4.5 -117.5t4.5 -117.5t18.5 -92.5t42.5 -67t72.5 -22q39 0 65 17z" />
    <glyph glyph-name="R" unicode="R" horiz-adv-x="519" 
d="M58 0v714h231q85 0 134 -47.5t49 -131.5q0 -66 -26 -116t-84 -64v-2q45 -5 71.5 -38t29.5 -81l6 -122q3 -55 12 -78t26 -34h-106q-19 19 -24 103l-6 111q-3 46 -21.5 70.5t-37 29t-47.5 4.5h-119v-318h-88zM146 642v-252h87q23 0 36.5 1t37 8t37.5 20.5t25 41.5t11 67
q0 53 -34 83.5t-95 30.5h-105z" />
    <glyph glyph-name="S" unicode="S" horiz-adv-x="500" 
d="M449 529h-88q0 127 -111 127q-56 0 -87 -30t-31 -86q0 -41 18.5 -68.5t48.5 -42t65.5 -26t71.5 -25t66 -33.5t48.5 -57t18.5 -90q0 -59 -20 -102.5t-53.5 -66t-70.5 -33t-78 -10.5q-120 0 -168 58.5t-48 179.5h88q0 -30 1.5 -48.5t8.5 -43.5t21 -39t40 -24.5t63 -10.5
q53 0 88.5 35t35.5 91q0 41 -18.5 69t-48.5 43t-66 26.5t-71.5 26t-65.5 34.5t-48.5 57.5t-18.5 90.5q0 23 4 46t17.5 51.5t35.5 49.5t61 35.5t91 14.5q197 0 200 -199z" />
    <glyph glyph-name="T" unicode="T" horiz-adv-x="463" 
d="M275 636v-636h-88v636h-179v78h447v-78h-180z" />
    <glyph glyph-name="U" unicode="U" horiz-adv-x="519" 
d="M50 212v502h88v-502q0 -80 28.5 -117t92.5 -37q68 0 95 37.5t27 116.5v502h88v-502q0 -105 -53.5 -165.5t-156.5 -60.5q-209 0 -209 226z" />
    <glyph glyph-name="V" unicode="V" horiz-adv-x="462" 
d="M172 0l-174 714h92l140 -613h2l140 613h92l-180 -714h-112z" />
    <glyph glyph-name="W" unicode="W" horiz-adv-x="722" 
d="M150 0l-142 714h88l109 -584h2l101 584h106l101 -584h2l109 584h88l-147 -714h-107l-98 578h-2l-103 -578h-107z" />
    <glyph glyph-name="X" unicode="X" horiz-adv-x="481" 
d="M192 363l-176 351h98l130 -267l131 267h92l-178 -351l190 -363h-98l-142 286l-145 -286h-92z" />
    <glyph glyph-name="Y" unicode="Y" horiz-adv-x="462" 
d="M187 280l-189 434h97l136 -334l141 334h92l-189 -434v-280h-88v280z" />
    <glyph glyph-name="Z" unicode="Z" horiz-adv-x="463" 
d="M23 0v74l321 562h-303v78h395v-81l-321 -555h325v-78h-417z" />
    <glyph glyph-name="bracketleft" unicode="[" horiz-adv-x="259" 
d="M78 -184v898h179v-66h-101v-766h101v-66h-179z" />
    <glyph glyph-name="backslash" unicode="\" horiz-adv-x="278" 
d="M222 -14l-232 742h66l232 -742h-66z" />
    <glyph glyph-name="bracketright" unicode="]" horiz-adv-x="259" 
d="M181 714v-898h-179v66h101v766h-101v66h179z" />
    <glyph glyph-name="asciicircum" unicode="^" horiz-adv-x="600" 
d="M47 261l229 433h48l229 -433h-66l-187 361l-187 -361h-66z" />
    <glyph glyph-name="underscore" unicode="_" horiz-adv-x="500" 
d="M0 -125v50h500v-50h-500z" />
    <glyph glyph-name="grave" unicode="`" 
d="M-16 752h98l70 -142h-60z" />
    <glyph glyph-name="a" unicode="a" horiz-adv-x="444" 
d="M126 374h-84q0 92 42.5 134t137.5 42q47 0 79.5 -11.5t48.5 -26t24.5 -39t9.5 -39t1 -38.5v-299q0 -15 1 -22t7 -14t18 -7q13 0 20 5v-60q-30 -5 -49 -5q-16 0 -25.5 1.5t-22.5 7t-20 21t-8 39.5h-2q-20 -35 -55.5 -56t-73.5 -21q-73 0 -109.5 41t-36.5 115
q0 117 101 148l113 34q30 9 43 20.5t15.5 22.5t2.5 38q0 38 -22 58.5t-64 20.5q-92 0 -92 -105v-5zM301 154v138q-18 -19 -73.5 -37t-69.5 -26q-41 -26 -41 -85q0 -92 76 -92q42 0 75 30.5t33 71.5z" />
    <glyph glyph-name="b" unicode="b" horiz-adv-x="463" 
d="M134 268q0 -62 7.5 -104.5t32.5 -74t68 -31.5q55 0 76.5 54.5t21.5 155.5q0 104 -21.5 157t-76.5 53q-108 0 -108 -210zM55 0v714h84v-239h2q14 34 48.5 54.5t75.5 20.5q163 0 163 -282q0 -123 -43.5 -202.5t-131.5 -79.5q-42 0 -74.5 24t-41.5 56h-2v-66h-80z" />
    <glyph glyph-name="c" unicode="c" horiz-adv-x="426" 
d="M394 373h-84q0 45 -20.5 78t-64.5 33q-22 0 -38.5 -7.5t-33 -29.5t-25 -68.5t-8.5 -116.5q0 -30 1 -49.5t6 -53.5t15 -54.5t30.5 -36.5t49.5 -16q34 0 54.5 22.5t27 50t6.5 61.5h84q0 -48 -15 -90.5t-56.5 -76t-104.5 -33.5q-97 0 -141.5 67.5t-44.5 207.5q0 45 4 82
t16 77t32.5 67.5t55.5 45t83 17.5q42 0 74 -12.5t49.5 -31.5t29 -44t15 -46.5t3.5 -42.5z" />
    <glyph glyph-name="d" unicode="d" horiz-adv-x="463" 
d="M123 268q0 -104 21.5 -157t76.5 -53q64 0 86 53t22 157q0 210 -108 210q-55 0 -76.5 -53t-21.5 -157zM408 714v-714h-80v66h-2q-9 -32 -41.5 -56t-74.5 -24q-175 0 -175 282t169 282q37 0 70.5 -20.5t47.5 -54.5h2v239h84z" />
    <glyph glyph-name="e" unicode="e" horiz-adv-x="444" 
d="M128 324h191v29q0 54 -21.5 92.5t-71.5 38.5q-31 0 -52 -16.5t-30 -42t-12.5 -45t-3.5 -36.5v-20zM407 258h-282q0 -28 0.5 -44.5t3 -45t9.5 -45.5t17.5 -35t29 -27t43.5 -9q37 0 59 24.5t27 48.5t5 51h84q0 -25 -8 -54t-26.5 -61.5t-56.5 -53.5t-89 -21
q-97 0 -141.5 67.5t-44.5 207.5q0 45 4 82t16 77t32.5 67.5t55.5 45t83 17.5q47 0 81.5 -16.5t52.5 -40.5t29 -61t13.5 -68t2.5 -72v-34z" />
    <glyph glyph-name="f" unicode="f" horiz-adv-x="259" 
d="M80 0v470h-78v66h78v63q0 123 116 123h61v-72h-39q-54 0 -54 -51v-63h92v-66h-92v-470h-84z" />
    <glyph glyph-name="g" unicode="g" horiz-adv-x="463" 
d="M221 478q-55 0 -76.5 -53t-21.5 -157q0 -196 97 -196q63 0 86 51t23 145q0 210 -108 210zM408 536v-502q0 -218 -182 -218q-162 0 -176 134h84q6 -68 86 -68q31 0 52.5 10t31 20.5t14.5 32t5.5 30t0.5 27.5v70h-2q-13 -33 -46.5 -52.5t-74.5 -19.5q-37 0 -66 14.5
t-46.5 40t-29 52.5t-16.5 60.5t-6.5 55.5t-1.5 45q0 79 14.5 138.5t55 101.5t105.5 42q42 0 74.5 -24.5t41.5 -57.5h2v68h80z" />
    <glyph glyph-name="h" unicode="h" horiz-adv-x="463" 
d="M55 0v714h84v-239h2q16 32 54 53.5t75 21.5q39 0 67 -12.5t41.5 -28t20.5 -43t8 -43.5t1 -43v-380h-84v370q0 21 -2 35t-9 33.5t-24 29.5t-44 10q-40 0 -73 -27.5t-33 -80.5v-370h-84z" />
    <glyph glyph-name="i" unicode="i" 
d="M60 0v536h84v-536h-84zM60 618v96h84v-96h-84z" />
    <glyph glyph-name="j" unicode="j" 
d="M144 536v-588q0 -67 -30.5 -99.5t-97.5 -32.5l-39 3v72q30 -3 31 -3q15 0 25.5 5t15.5 11.5t7.5 20.5t3 23.5t0.5 29.5v558h84zM144 714v-96h-84v96h84z" />
    <glyph glyph-name="k" unicode="k" horiz-adv-x="444" 
d="M264 334l191 -334h-98l-149 265l-69 -84v-181h-84v714h84v-425h2l188 247h98z" />
    <glyph glyph-name="l" unicode="l" 
d="M60 0v714h84v-714h-84z" />
    <glyph glyph-name="m" unicode="m" horiz-adv-x="722" 
d="M63 0v536h80v-63h2q16 36 52.5 56.5t77.5 20.5q47 0 75 -20t41 -65q19 37 53 61t74 24t68.5 -12.5t42 -28t21 -43t8.5 -43.5t1 -43v-380h-84v370q0 20 -2 35t-8 33.5t-22 29t-40 10.5q-37 0 -68.5 -26t-31.5 -82v-370h-84v370q0 20 -2 35t-8 33.5t-22 29t-40 10.5
q-37 0 -68.5 -26t-31.5 -82v-370h-84z" />
    <glyph glyph-name="n" unicode="n" horiz-adv-x="463" 
d="M55 0v536h80v-63h2q16 36 52.5 56.5t77.5 20.5q40 0 68.5 -12.5t42 -28t21 -43t8.5 -43.5t1 -43v-380h-84v370q0 21 -2 35t-9 33.5t-24 29.5t-44 10q-40 0 -73 -27.5t-33 -80.5v-370h-84z" />
    <glyph glyph-name="o" unicode="o" horiz-adv-x="444" 
d="M29 268q0 282 193 282t193 -282t-193 -282t-193 282zM220 52q61 0 84 57.5t23 158.5q0 48 -4.5 83.5t-15.5 67.5t-33 48.5t-54 16.5q-31 0 -52 -17t-31.5 -48.5t-15 -67.5t-4.5 -83q0 -48 4 -83.5t15 -67.5t32 -48.5t52 -16.5z" />
    <glyph glyph-name="p" unicode="p" horiz-adv-x="463" 
d="M134 268q0 -210 108 -210q55 0 76.5 54.5t21.5 165.5q0 97 -21.5 148.5t-76.5 51.5q-64 0 -86 -53t-22 -157zM55 -176v712h80v-66h2q9 32 41.5 56t74.5 24q175 0 175 -272q0 -40 -4.5 -77.5t-17 -77.5t-31.5 -69.5t-50.5 -48.5t-71.5 -19q-36 0 -67 20.5t-45 54.5h-2
v-237h-84z" />
    <glyph glyph-name="q" unicode="q" horiz-adv-x="463" 
d="M329 268q0 104 -22 157t-86 53q-55 0 -76.5 -51.5t-21.5 -148.5q0 -111 21.5 -165.5t76.5 -54.5q108 0 108 210zM324 -176v237h-2q-14 -34 -45 -54.5t-67 -20.5q-50 0 -85.5 24.5t-54.5 67.5t-27 92t-8 108q0 272 175 272q42 0 74.5 -24t41.5 -56h2v66h80v-712h-84z" />
    <glyph glyph-name="r" unicode="r" horiz-adv-x="296" 
d="M55 0v536h84v-80h2q44 94 116 94q25 0 37 -6v-82q-32 4 -45 4q-38 0 -74 -33.5t-36 -93.5v-339h-84z" />
    <glyph glyph-name="s" unicode="s" horiz-adv-x="407" 
d="M369 379h-84q0 54 -17.5 79.5t-61.5 25.5q-87 0 -87 -82q0 -13 3.5 -24t12 -19.5t15 -14t22 -12t23.5 -9.5t28 -9t28 -9q32 -11 49 -19t39.5 -24.5t32.5 -43t10 -64.5q0 -82 -47.5 -125t-125.5 -43q-52 0 -89 15.5t-55 35t-27.5 50t-11 48t-1.5 41.5h84q0 -124 100 -124
q18 0 36 5.5t35.5 27t17.5 56.5q0 12 -2 22t-7.5 18.5t-9.5 14.5t-14.5 13t-15.5 10.5t-19.5 9t-19.5 7t-22 7.5t-21 7q-29 10 -40 14t-33.5 17t-32 26.5t-18 38t-8.5 56.5q0 72 48.5 110t122.5 38q45 0 77 -12.5t48 -29t25 -43t11 -44t2 -42.5z" />
    <glyph glyph-name="t" unicode="t" horiz-adv-x="259" 
d="M80 536v156h84v-156h93v-66h-93v-344q0 -33 11.5 -46.5t43.5 -13.5q10 0 37 3v-69q-33 -6 -68 -6q-62 0 -85 25t-23 81v370h-78v66h78z" />
    <glyph glyph-name="u" unicode="u" horiz-adv-x="463" 
d="M408 536v-536h-80v63h-2q-16 -36 -52.5 -56.5t-77.5 -20.5q-40 0 -68.5 12.5t-42 28t-21 43t-8.5 43.5t-1 43v380h84v-370q0 -21 2 -35t9 -33.5t24 -29.5t44 -10q40 0 73 27.5t33 80.5v370h84z" />
    <glyph glyph-name="v" unicode="v" horiz-adv-x="406" 
d="M155 0l-145 536h92l100 -430h2l100 430h92l-145 -536h-96z" />
    <glyph glyph-name="w" unicode="w" horiz-adv-x="648" 
d="M135 0l-125 536h88l86 -438h2l91 438h99l89 -438h2l83 438h88l-127 -536h-92l-94 438h-2l-90 -438h-98z" />
    <glyph glyph-name="x" unicode="x" horiz-adv-x="406" 
d="M153 279l-137 257h92l97 -191l98 191h92l-140 -257l145 -279h-92l-107 212l-103 -212h-92z" />
    <glyph glyph-name="y" unicode="y" horiz-adv-x="406" 
d="M168 -11l-158 547h92l106 -430h2l94 430h92l-155 -572q-9 -34 -17 -54t-23.5 -42.5t-41 -33t-61.5 -10.5q-19 0 -61 3v66q18 -3 49 -3q48 0 66 52z" />
    <glyph glyph-name="z" unicode="z" horiz-adv-x="389" 
d="M39 464v72h323v-70l-240 -394h238v-72h-333v66l243 398h-231z" />
    <glyph glyph-name="braceleft" unicode="{" horiz-adv-x="259" 
d="M2 235v60q34 0 55 30t21 81v178q0 69 30 99.5t78 30.5h71v-66h-51q-17 0 -28 -7t-15.5 -21t-5.5 -25t-1 -29v-172q0 -63 -30 -93.5t-58 -34.5v-2q28 -4 58 -34.5t30 -93.5v-172q0 -18 1 -29t5.5 -25t15.5 -21t28 -7h51v-66h-71q-48 0 -78 30.5t-30 99.5v178q0 51 -21 81
t-55 30z" />
    <glyph glyph-name="bar" unicode="|" horiz-adv-x="222" 
d="M78 -14v742h66v-742h-66z" />
    <glyph glyph-name="braceright" unicode="}" horiz-adv-x="259" 
d="M257 295v-60q-34 0 -55 -30t-21 -81v-178q0 -69 -30 -99.5t-78 -30.5h-71v66h51q17 0 28 7t15.5 21t5.5 25t1 29v172q0 63 30 93.5t58 34.5v2q-28 4 -58 34.5t-30 93.5v172q0 18 -1 29t-5.5 25t-15.5 21t-28 7h-51v66h71q48 0 78 -30.5t30 -99.5v-178q0 -51 21 -81
t55 -30z" />
    <glyph glyph-name="asciitilde" unicode="~" horiz-adv-x="600" 
d="M98 185l-42 46q19 27 34.5 44t43.5 33t58 16t50 -5t54 -24q7 -4 24.5 -14.5t28 -16t26 -11t28.5 -5.5q50 0 99 73l42 -45q-19 -27 -34.5 -44.5t-43.5 -33.5t-58 -16t-50 5t-54 24q-7 4 -24.5 14.5t-28 16t-26 11t-28.5 5.5q-50 0 -99 -73z" />
    <glyph glyph-name="uni00A0" unicode="&#xa0;" horiz-adv-x="240" 
 />
    <glyph glyph-name="exclamdown" unicode="&#xa1;" horiz-adv-x="258" 
d="M159 352l16 -528h-92l16 528h60zM175 538v-96h-92v96h92z" />
    <glyph glyph-name="cent" unicode="&#xa2;" horiz-adv-x="480" 
d="M227 52v432q-80 -19 -80 -222q0 -36 1.5 -60.5t8.5 -61t24.5 -59.5t45.5 -29zM227 -99v85q-87 5 -127.5 72.5t-40.5 202.5q0 55 6.5 98.5t23 87.5t51.5 71t87 32v70h42v-70q46 -3 78 -22t47 -47.5t21 -54.5t6 -53h-84q0 42 -16.5 73.5t-51.5 37.5v-432q68 16 68 134h84
q0 -45 -13 -86t-49 -74.5t-90 -39.5v-85h-42z" />
    <glyph glyph-name="sterling" unicode="&#xa3;" horiz-adv-x="480" 
d="M447 505h-84q0 61 -27 99t-87 38q-59 0 -86 -32t-27 -73q0 -45 56 -155h164v-60h-142q17 -34 17 -68q0 -37 -21.5 -74t-44 -58.5t-61.5 -54.5l2 -2q56 28 85 28q25 0 61 -14q34 -15 65 -15q24 0 44.5 7.5t62.5 31.5l37 -67q-71 -50 -138 -50q-35 0 -88.5 20.5t-81.5 20.5
q-25 0 -49 -11l-47 -22l-38 65q39 32 60.5 52.5t42.5 57.5t21 76q0 45 -21 77h-95v60h70l-16 31q-33 64 -33 115q0 84 57 132t144 48q91 0 144.5 -51t53.5 -152z" />
    <glyph glyph-name="currency" unicode="&#xa4;" horiz-adv-x="480" 
d="M92 347q0 -65 43 -109.5t105 -44.5t105 44.5t43 109.5t-43 109.5t-105 44.5t-105 -44.5t-43 -109.5zM18 167l47 47q-45 59 -45 133q0 73 45 132l-47 47l43 43l47 -47q57 45 132 45q74 0 132 -45l47 47l43 -43l-47 -47q45 -57 45 -132t-46 -132l48 -48l-42 -42l-48 48
q-57 -46 -132 -46q-74 0 -133 45l-47 -47z" />
    <glyph glyph-name="yen" unicode="&#xa5;" horiz-adv-x="480" 
d="M200 0v153h-147v60h147v60l-10 22h-137v60h110l-154 339h97l136 -324l141 324h88l-150 -339h110v-60h-137l-10 -22v-60h147v-60h-147v-153h-84z" />
    <glyph glyph-name="brokenbar" unicode="&#xa6;" horiz-adv-x="222" 
d="M78 -14v294h66v-294h-66zM78 434v294h66v-294h-66z" />
    <glyph glyph-name="section" unicode="&#xa7;" horiz-adv-x="482" 
d="M413 578h-88q0 39 -25 61.5t-63 22.5q-41 0 -63 -23.5t-22 -51.5q0 -21 13 -39.5t27.5 -29.5t39.5 -26l100 -60q60 -37 90 -71.5t30 -88.5q0 -86 -89 -147q58 -37 58 -124q0 -72 -51 -113.5t-123 -41.5q-43 0 -76 12t-53 30t-32.5 42t-17 46t-4.5 44h84q0 -48 25.5 -78
t73.5 -30t67 27.5t19 57.5q0 54 -83 107l-113 70q-107 66 -107 146q0 50 24 80t74 62q-29 19 -46.5 52t-17.5 68q0 69 51.5 107.5t121.5 38.5q46 0 80 -12.5t51 -28t28 -40.5t13 -37.5t4 -31.5zM184 245l66 -42l60 -41q58 35 58 95q0 56 -77 102l-110 68q-21 -15 -31 -24
t-23 -29.5t-13 -42.5q0 -43 70 -86z" />
    <glyph glyph-name="dieresis" unicode="&#xa8;" 
d="M-18 634v101h78v-101h-78zM144 634v101h78v-101h-78z" />
    <glyph glyph-name="copyright" unicode="&#xa9;" horiz-adv-x="800" 
d="M543 279h60q-10 -74 -65 -114.5t-132 -40.5q-101 0 -160 63.5t-59 166.5t59 166.5t160 63.5q78 0 132.5 -40t64.5 -115h-60q-9 41 -46 68t-91 27q-69 0 -111 -49t-42 -121t42 -121t111 -49q54 0 91 27t46 68zM29 357q0 154 108.5 262.5t262.5 108.5t262.5 -108.5
t108.5 -262.5t-108.5 -262.5t-262.5 -108.5t-262.5 108.5t-108.5 262.5zM400 46q127 0 216 91t89 220t-89 220t-216 91t-216 -91t-89 -220t89 -220t216 -91z" />
    <glyph glyph-name="ordfeminine" unicode="&#xaa;" horiz-adv-x="289" 
d="M251 612v-176q0 -27 17 -27q7 0 13 3v-42q-12 -3 -38 -3q-49 0 -50 46h-2q-25 -46 -88 -46q-45 0 -70 25.5t-25 67.5q0 72 72 92l73 20q18 5 26.5 12t10 13t1.5 20q0 43 -54 43q-59 0 -59 -58v-4h-60q0 59 29 84.5t98 25.5q37 0 60.5 -9t32.5 -27t11 -29.5t2 -30.5z
M191 470v77q-11 -11 -47 -21t-46 -17q-24 -16 -24 -45q0 -49 46 -49q27 0 49 17.5t22 37.5z" />
    <glyph glyph-name="guillemotleft" unicode="&#xab;" horiz-adv-x="389" 
d="M198 245v78l142 143v-88l-94 -94l94 -94v-88zM49 245v78l142 143v-88l-94 -94l94 -94v-88z" />
    <glyph glyph-name="logicalnot" unicode="&#xac;" horiz-adv-x="600" 
d="M487 106v216h-440v66h506v-282h-66z" />
    <glyph glyph-name="uni00AD" unicode="&#xad;" horiz-adv-x="352" 
d="M54 245v78h244v-78h-244z" />
    <glyph glyph-name="registered" unicode="&#xae;" horiz-adv-x="800" 
d="M252 138v434h168q148 0 148 -127q0 -55 -32 -84.5t-85 -35.5l124 -187h-66l-120 182h-71v-182h-66zM318 380h71q28 0 44 1.5t34 8t26.5 21t8.5 37.5q0 38 -25.5 51t-68.5 13h-90v-132zM29 357q0 154 108.5 262.5t262.5 108.5t262.5 -108.5t108.5 -262.5t-108.5 -262.5
t-262.5 -108.5t-262.5 108.5t-108.5 262.5zM400 46q127 0 216 91t89 220t-89 220t-216 91t-216 -91t-89 -220t89 -220t216 -91z" />
    <glyph glyph-name="macron" unicode="&#xaf;" 
d="M-30 655v54h264v-54h-264z" />
    <glyph glyph-name="degree" unicode="&#xb0;" horiz-adv-x="400" 
d="M51 559q0 65 42.5 107t106.5 42t106.5 -42t42.5 -107t-42.5 -107t-106.5 -42t-106.5 42t-42.5 107zM105 559q0 -39 28 -67t67 -28t67 28t28 67t-28 67t-67 28t-67 -28t-28 -67z" />
    <glyph glyph-name="plusminus" unicode="&#xb1;" horiz-adv-x="600" 
d="M47 295v66h220v145h66v-145h220v-66h-220v-145h-66v145h-220zM47 0v66h506v-66h-506z" />
    <glyph glyph-name="twosuperior" unicode="&#xb2;" horiz-adv-x="312" 
d="M282 280h-261q0 93 100 175l37 30q32 25 47 47.5t15 55.5q0 60 -66 60q-62 0 -62 -76h-72q0 136 139 136q60 0 96.5 -29.5t36.5 -84.5q0 -46 -19 -76.5t-62 -64.5l-62 -50q-35 -28 -47 -63h180v-60z" />
    <glyph glyph-name="threesuperior" unicode="&#xb3;" horiz-adv-x="312" 
d="M116 474v54h24q35 0 53.5 19t18.5 50q0 24 -14.5 40.5t-40.5 16.5q-62 0 -62 -69h-72q0 123 136 123q69 0 97 -33t28 -78q0 -33 -22 -58.5t-62 -33.5v-2q96 -15 96 -99q0 -61 -34 -96t-102 -35q-37 0 -65.5 10.5t-43 25t-23 33t-10.5 29.5t-2 20v5h72q0 -27 17.5 -48
t52.5 -21q25 0 45.5 17.5t20.5 55.5q0 35 -20 54.5t-60 19.5h-28z" />
    <glyph glyph-name="acute" unicode="&#xb4;" 
d="M52 610l70 142h98l-108 -142h-60z" />
    <glyph glyph-name="mu" unicode="&#xb5;" horiz-adv-x="463" 
d="M408 536v-536h-80v63h-2q-16 -36 -52.5 -56.5t-77.5 -20.5q-39 0 -57 14v-176h-84v712h84v-370q0 -21 2 -35t9 -33.5t24 -29.5t44 -10q40 0 73 27.5t33 80.5v370h84z" />
    <glyph glyph-name="paragraph" unicode="&#xb6;" horiz-adv-x="556" 
d="M411 -140v800h-100v-800h-66v462q-91 0 -150 53.5t-59 132.5q0 96 64.5 151t171.5 55h205v-854h-66z" />
    <glyph glyph-name="periodcentered" unicode="&#xb7;" horiz-adv-x="240" 
d="M64 327q0 23 16.5 39.5t39.5 16.5t39.5 -16.5t16.5 -39.5t-16.5 -39.5t-39.5 -16.5t-39.5 16.5t-16.5 39.5z" />
    <glyph glyph-name="cedilla" unicode="&#xb8;" 
d="M-1 -192l15 34q36 -12 64 -12q55 0 55 41q0 17 -14 27t-33 10q-29 0 -38 -7l-15 18l59 87h42l-41 -60l2 -2q14 6 30 6q30 0 55 -19t25 -57q0 -37 -32 -61.5t-75 -24.5q-65 0 -99 20z" />
    <glyph glyph-name="onesuperior" unicode="&#xb9;" horiz-adv-x="312" 
d="M128 280v313h-96v48q25 0 42 2t34.5 8.5t26.5 20.5t10 36h49v-428h-66z" />
    <glyph glyph-name="ordmasculine" unicode="&#xba;" horiz-adv-x="289" 
d="M143 708q130 0 130 -169q0 -172 -130 -172q-127 0 -127 172q0 169 127 169zM143 415q64 0 64 124q0 121 -64 121q-61 0 -61 -121q0 -124 61 -124z" />
    <glyph glyph-name="guillemotright" unicode="&#xbb;" horiz-adv-x="389" 
d="M340 323v-78l-142 -143v88l94 94l-94 94v88zM191 323v-78l-142 -143v88l94 94l-94 94v88z" />
    <glyph glyph-name="onequarter" unicode="&#xbc;" horiz-adv-x="721" 
d="M454 153h112v185h-2zM400 159l160 269h72v-275h47v-54h-47v-99h-66v99h-166v60zM93 -31l434 756h60l-434 -756h-60zM32 593v48q25 0 42 2t34.5 8.5t26.5 20.5t10 36h49v-428h-66v313h-96z" />
    <glyph glyph-name="onehalf" unicode="&#xbd;" horiz-adv-x="721" 
d="M74 -31l434 756h60l-434 -756h-60zM30 593v48q25 0 42 2t34.5 8.5t26.5 20.5t10 36h49v-428h-66v313h-96zM681 0h-261q0 93 100 175l37 30q32 25 47 47.5t15 55.5q0 60 -66 60q-62 0 -62 -76h-72q0 136 139 136q60 0 96.5 -29.5t36.5 -84.5q0 -46 -19 -76.5t-62 -64.5
l-62 -50q-35 -28 -47 -63h180v-60z" />
    <glyph glyph-name="threequarters" unicode="&#xbe;" horiz-adv-x="721" 
d="M476 153h112v185h-2zM422 159l160 269h72v-275h47v-54h-47v-99h-66v99h-166v60zM145 -31l434 756h60l-434 -756h-60zM120 474v54h24q35 0 53.5 19t18.5 50q0 24 -14.5 40.5t-40.5 16.5q-62 0 -62 -69h-72q0 123 136 123q69 0 97 -33t28 -78q0 -33 -22 -58.5t-62 -33.5v-2
q96 -15 96 -99q0 -61 -34 -96t-102 -35q-37 0 -65.5 10.5t-43 25t-23 33t-10.5 29.5t-2 20v5h72q0 -27 17.5 -48t52.5 -21q25 0 45.5 17.5t20.5 55.5q0 35 -20 54.5t-60 19.5h-28z" />
    <glyph glyph-name="questiondown" unicode="&#xbf;" horiz-adv-x="444" 
d="M325 34h84q0 -95 -47 -156.5t-139 -61.5q-88 0 -138 52.5t-50 135.5q0 80 50 141q5 6 39 44t39 44q32 41 32 100v19h78q0 -87 -19 -123q-10 -19 -29.5 -43.5t-42 -49.5t-29.5 -35q-30 -39 -30 -102q0 -47 25.5 -79t71.5 -32q105 0 105 146zM279 538v-96h-92v96h92z" />
    <glyph glyph-name="Agrave" unicode="&#xc0;" horiz-adv-x="500" 
d="M-8 0l206 714h118l192 -714h-92l-51 196h-228l-53 -196h-92zM254 613l-99 -345h192l-91 345h-2zM139 895h98l70 -142h-60z" />
    <glyph glyph-name="Aacute" unicode="&#xc1;" horiz-adv-x="500" 
d="M-8 0l206 714h118l192 -714h-92l-51 196h-228l-53 -196h-92zM254 613l-99 -345h192l-91 345h-2zM207 753l70 142h98l-108 -142h-60z" />
    <glyph glyph-name="Acircumflex" unicode="&#xc2;" horiz-adv-x="500" 
d="M-8 0l206 714h118l192 -714h-92l-51 196h-228l-53 -196h-92zM254 613l-99 -345h192l-91 345h-2zM118 753l101 142h77l100 -142h-78l-61 88l-61 -88h-78z" />
    <glyph glyph-name="Atilde" unicode="&#xc3;" horiz-adv-x="500" 
d="M-8 0l206 714h118l192 -714h-92l-51 196h-228l-53 -196h-92zM254 613l-99 -345h192l-91 345h-2zM350 883h54q0 -42 -23 -76.5t-63 -34.5q-24 0 -65.5 19t-49.5 19q-31 0 -39 -45h-54q0 45 27 78t66 33q22 0 60 -19q42 -19 52 -19q12 0 20 8.5t10 15.5t5 21z" />
    <glyph glyph-name="Adieresis" unicode="&#xc4;" horiz-adv-x="500" 
d="M-8 0l206 714h118l192 -714h-92l-51 196h-228l-53 -196h-92zM254 613l-99 -345h192l-91 345h-2zM137 777v101h78v-101h-78zM299 777v101h78v-101h-78z" />
    <glyph glyph-name="Aring" unicode="&#xc5;" horiz-adv-x="500" 
d="M-8 0l206 714h118l192 -714h-92l-51 196h-228l-53 -196h-92zM254 613l-99 -345h192l-91 345h-2zM158 833q0 41 29 70t70 29t70 -29t29 -70t-29 -70t-70 -29t-70 29t-29 70zM200 833q0 -23 17 -40t40 -17t40 17t17 40t-17 40t-40 17t-40 -17t-17 -40z" />
    <glyph glyph-name="AE" unicode="&#xc6;" horiz-adv-x="722" 
d="M322 642l-140 -374h150v374h-10zM-8 0l276 714h418v-78h-266v-224h250v-78h-250v-256h278v-78h-366v196h-175l-73 -196h-92z" />
    <glyph glyph-name="Ccedilla" unicode="&#xc7;" horiz-adv-x="519" 
d="M198 -81l46 69q-50 6 -86.5 31t-57 58.5t-33 83t-16 94.5t-3.5 102q0 60 5 108.5t19.5 99.5t39 85t67 56t99.5 22q205 0 211 -222h-92q-4 150 -119 150q-44 0 -72.5 -22t-42.5 -67t-18.5 -92.5t-4.5 -117.5t4.5 -117.5t18.5 -92.5t42.5 -67t72.5 -22q38 0 64 16t38 46
t17 58t6 67h92q-7 -113 -56.5 -185t-153.5 -74l-27 -40l2 -2q14 6 30 6q30 0 55 -19t25 -57q0 -37 -32 -61.5t-75 -24.5q-65 0 -99 20l15 34q36 -12 64 -12q55 0 55 41q0 17 -14 27t-33 10q-29 0 -38 -7z" />
    <glyph glyph-name="Egrave" unicode="&#xc8;" horiz-adv-x="463" 
d="M58 0v714h369v-78h-281v-224h265v-78h-265v-256h293v-78h-381zM126 895h98l70 -142h-60z" />
    <glyph glyph-name="Eacute" unicode="&#xc9;" horiz-adv-x="463" 
d="M58 0v714h369v-78h-281v-224h265v-78h-265v-256h293v-78h-381zM194 753l70 142h98l-108 -142h-60z" />
    <glyph glyph-name="Ecircumflex" unicode="&#xca;" horiz-adv-x="463" 
d="M58 0v714h369v-78h-281v-224h265v-78h-265v-256h293v-78h-381zM105 753l101 142h77l100 -142h-78l-61 88l-61 -88h-78z" />
    <glyph glyph-name="Edieresis" unicode="&#xcb;" horiz-adv-x="463" 
d="M58 0v714h369v-78h-281v-224h265v-78h-265v-256h293v-78h-381zM124 777v101h78v-101h-78zM286 777v101h78v-101h-78z" />
    <glyph glyph-name="Igrave" unicode="&#xcc;" 
d="M58 0v714h88v-714h-88zM-16 895h98l70 -142h-60z" />
    <glyph glyph-name="Iacute" unicode="&#xcd;" 
d="M58 0v714h88v-714h-88zM52 753l70 142h98l-108 -142h-60z" />
    <glyph glyph-name="Icircumflex" unicode="&#xce;" 
d="M58 0v714h88v-714h-88zM-37 753l101 142h77l100 -142h-78l-61 88l-61 -88h-78z" />
    <glyph glyph-name="Idieresis" unicode="&#xcf;" 
d="M58 0v714h88v-714h-88zM-18 777v101h78v-101h-78zM144 777v101h78v-101h-78z" />
    <glyph glyph-name="Eth" unicode="&#xd0;" horiz-adv-x="556" 
d="M67 0v340h-58v66h58v308h191q54 0 95.5 -12t68 -37t44.5 -55t27 -73.5t12 -84t3 -95.5q0 -357 -241 -357h-200zM155 72h92q44 0 76 18t49.5 44.5t27.5 67t13 75t3 79.5q0 41 -1.5 69.5t-6.5 65t-16.5 61t-29.5 46.5t-47 33t-68 11h-92v-236h134v-66h-134v-268z" />
    <glyph glyph-name="Ntilde" unicode="&#xd1;" horiz-adv-x="556" 
d="M58 0v714h114l236 -596h2v596h88v-714h-121l-229 578h-2v-578h-88zM371 883h54q0 -42 -23 -76.5t-63 -34.5q-24 0 -65.5 19t-49.5 19q-32 0 -39 -45h-54q0 45 27 78t66 33q22 0 60 -19q42 -19 52 -19q12 0 20 8.5t10 15.5t5 21z" />
    <glyph glyph-name="Ograve" unicode="&#xd2;" horiz-adv-x="556" 
d="M278 728q57 0 99.5 -22t67 -56t39 -85t19.5 -99.5t5 -108.5t-5 -108.5t-19.5 -99.5t-39 -85t-67 -56t-99.5 -22t-99.5 22t-67 56t-39 85t-19.5 99.5t-5 108.5t5 108.5t19.5 99.5t39 85t67 56t99.5 22zM278 656q-44 0 -72.5 -22t-42.5 -67t-18.5 -92.5t-4.5 -117.5
t4.5 -117.5t18.5 -92.5t42.5 -67t72.5 -22t72.5 22t42.5 67t18.5 92.5t4.5 117.5t-4.5 117.5t-18.5 92.5t-42.5 67t-72.5 22zM160 895h98l70 -142h-60z" />
    <glyph glyph-name="Oacute" unicode="&#xd3;" horiz-adv-x="556" 
d="M278 728q57 0 99.5 -22t67 -56t39 -85t19.5 -99.5t5 -108.5t-5 -108.5t-19.5 -99.5t-39 -85t-67 -56t-99.5 -22t-99.5 22t-67 56t-39 85t-19.5 99.5t-5 108.5t5 108.5t19.5 99.5t39 85t67 56t99.5 22zM278 656q-44 0 -72.5 -22t-42.5 -67t-18.5 -92.5t-4.5 -117.5
t4.5 -117.5t18.5 -92.5t42.5 -67t72.5 -22t72.5 22t42.5 67t18.5 92.5t4.5 117.5t-4.5 117.5t-18.5 92.5t-42.5 67t-72.5 22zM228 753l70 142h98l-108 -142h-60z" />
    <glyph glyph-name="Ocircumflex" unicode="&#xd4;" horiz-adv-x="556" 
d="M278 728q57 0 99.5 -22t67 -56t39 -85t19.5 -99.5t5 -108.5t-5 -108.5t-19.5 -99.5t-39 -85t-67 -56t-99.5 -22t-99.5 22t-67 56t-39 85t-19.5 99.5t-5 108.5t5 108.5t19.5 99.5t39 85t67 56t99.5 22zM278 656q-44 0 -72.5 -22t-42.5 -67t-18.5 -92.5t-4.5 -117.5
t4.5 -117.5t18.5 -92.5t42.5 -67t72.5 -22t72.5 22t42.5 67t18.5 92.5t4.5 117.5t-4.5 117.5t-18.5 92.5t-42.5 67t-72.5 22zM139 753l101 142h77l100 -142h-78l-61 88l-61 -88h-78z" />
    <glyph glyph-name="Otilde" unicode="&#xd5;" horiz-adv-x="556" 
d="M278 728q57 0 99.5 -22t67 -56t39 -85t19.5 -99.5t5 -108.5t-5 -108.5t-19.5 -99.5t-39 -85t-67 -56t-99.5 -22t-99.5 22t-67 56t-39 85t-19.5 99.5t-5 108.5t5 108.5t19.5 99.5t39 85t67 56t99.5 22zM278 656q-44 0 -72.5 -22t-42.5 -67t-18.5 -92.5t-4.5 -117.5
t4.5 -117.5t18.5 -92.5t42.5 -67t72.5 -22t72.5 22t42.5 67t18.5 92.5t4.5 117.5t-4.5 117.5t-18.5 92.5t-42.5 67t-72.5 22zM371 883h54q0 -42 -23 -76.5t-63 -34.5q-24 0 -65.5 19t-49.5 19q-32 0 -39 -45h-54q0 45 27 78t66 33q22 0 60 -19q42 -19 52 -19q12 0 20 8.5
t10 15.5t5 21z" />
    <glyph glyph-name="Odieresis" unicode="&#xd6;" horiz-adv-x="556" 
d="M278 728q57 0 99.5 -22t67 -56t39 -85t19.5 -99.5t5 -108.5t-5 -108.5t-19.5 -99.5t-39 -85t-67 -56t-99.5 -22t-99.5 22t-67 56t-39 85t-19.5 99.5t-5 108.5t5 108.5t19.5 99.5t39 85t67 56t99.5 22zM278 656q-44 0 -72.5 -22t-42.5 -67t-18.5 -92.5t-4.5 -117.5
t4.5 -117.5t18.5 -92.5t42.5 -67t72.5 -22t72.5 22t42.5 67t18.5 92.5t4.5 117.5t-4.5 117.5t-18.5 92.5t-42.5 67t-72.5 22zM158 777v101h78v-101h-78zM320 777v101h78v-101h-78z" />
    <glyph glyph-name="multiply" unicode="&#xd7;" horiz-adv-x="600" 
d="M480 30l-180 180l-181 -180l-42 42l181 181l-181 181l42 42l181 -180l180 180l43 -42l-181 -181l181 -181z" />
    <glyph glyph-name="Oslash" unicode="&#xd8;" horiz-adv-x="556" 
d="M161 153l197 473q-30 30 -80 30q-44 0 -72.5 -22t-42.5 -67t-18.5 -92.5t-4.5 -117.5q0 -137 21 -204zM395 562l-196 -474q30 -30 79 -30q44 0 72.5 22t42.5 67t18.5 92.5t4.5 117.5q0 140 -21 205zM88 -24l33 80q-73 86 -73 301q0 60 5 108.5t19.5 99.5t39 85t67 56
t99.5 22q66 0 111 -28l24 59l54 -22l-32 -77q73 -86 73 -303q0 -60 -5 -108.5t-19.5 -99.5t-39 -85t-67 -56t-99.5 -22q-65 0 -110 28l-26 -62z" />
    <glyph glyph-name="Ugrave" unicode="&#xd9;" horiz-adv-x="519" 
d="M50 212v502h88v-502q0 -80 28.5 -117t92.5 -37q68 0 95 37.5t27 116.5v502h88v-502q0 -105 -53.5 -165.5t-156.5 -60.5q-209 0 -209 226zM142 895h98l70 -142h-60z" />
    <glyph glyph-name="Uacute" unicode="&#xda;" horiz-adv-x="519" 
d="M50 212v502h88v-502q0 -80 28.5 -117t92.5 -37q68 0 95 37.5t27 116.5v502h88v-502q0 -105 -53.5 -165.5t-156.5 -60.5q-209 0 -209 226zM210 753l70 142h98l-108 -142h-60z" />
    <glyph glyph-name="Ucircumflex" unicode="&#xdb;" horiz-adv-x="519" 
d="M50 212v502h88v-502q0 -80 28.5 -117t92.5 -37q68 0 95 37.5t27 116.5v502h88v-502q0 -105 -53.5 -165.5t-156.5 -60.5q-209 0 -209 226zM121 753l101 142h77l100 -142h-78l-61 88l-61 -88h-78z" />
    <glyph glyph-name="Udieresis" unicode="&#xdc;" horiz-adv-x="519" 
d="M50 212v502h88v-502q0 -80 28.5 -117t92.5 -37q68 0 95 37.5t27 116.5v502h88v-502q0 -105 -53.5 -165.5t-156.5 -60.5q-209 0 -209 226zM140 777v101h78v-101h-78zM302 777v101h78v-101h-78z" />
    <glyph glyph-name="Yacute" unicode="&#xdd;" horiz-adv-x="462" 
d="M187 280l-189 434h97l136 -334l141 334h92l-189 -434v-280h-88v280zM181 753l70 142h98l-108 -142h-60z" />
    <glyph glyph-name="Thorn" unicode="&#xde;" horiz-adv-x="481" 
d="M58 0v714h88v-140h94q20 0 32.5 -0.5t38 -4.5t43 -11t39.5 -22.5t35.5 -36.5t23 -54.5t9.5 -75.5q0 -98 -56.5 -152.5t-149.5 -54.5h-109v-162h-88zM146 502v-268h105q51 0 84.5 35.5t33.5 103.5q0 129 -124 129h-99z" />
    <glyph glyph-name="germandbls" unicode="&#xdf;" horiz-adv-x="463" 
d="M48 0v511q0 102 39 156.5t138 54.5q76 0 124 -41t48 -122q0 -52 -27.5 -95t-78.5 -52v-2q68 0 105.5 -53.5t37.5 -132.5q0 -90 -45.5 -157t-133.5 -67h-59v72h58q35 0 57 27.5t28.5 59t6.5 65.5q0 68 -29 109t-78 41q-25 0 -40 -3v69h20q40 0 67 27.5t27 77.5
q0 46 -20 78.5t-68 32.5q-31 0 -51 -10.5t-28.5 -31.5t-11 -40t-2.5 -49v-525h-84z" />
    <glyph glyph-name="agrave" unicode="&#xe0;" horiz-adv-x="444" 
d="M126 374h-84q0 92 42.5 134t137.5 42q47 0 79.5 -11.5t48.5 -26t24.5 -39t9.5 -39t1 -38.5v-299q0 -15 1 -22t7 -14t18 -7q13 0 20 5v-60q-30 -5 -49 -5q-16 0 -25.5 1.5t-22.5 7t-20 21t-8 39.5h-2q-20 -35 -55.5 -56t-73.5 -21q-73 0 -109.5 41t-36.5 115
q0 117 101 148l113 34q30 9 43 20.5t15.5 22.5t2.5 38q0 38 -22 58.5t-64 20.5q-92 0 -92 -105v-5zM301 154v138q-18 -19 -73.5 -37t-69.5 -26q-41 -26 -41 -85q0 -92 76 -92q42 0 75 30.5t33 71.5zM104 752h98l70 -142h-60z" />
    <glyph glyph-name="aacute" unicode="&#xe1;" horiz-adv-x="444" 
d="M126 374h-84q0 92 42.5 134t137.5 42q47 0 79.5 -11.5t48.5 -26t24.5 -39t9.5 -39t1 -38.5v-299q0 -15 1 -22t7 -14t18 -7q13 0 20 5v-60q-30 -5 -49 -5q-16 0 -25.5 1.5t-22.5 7t-20 21t-8 39.5h-2q-20 -35 -55.5 -56t-73.5 -21q-73 0 -109.5 41t-36.5 115
q0 117 101 148l113 34q30 9 43 20.5t15.5 22.5t2.5 38q0 38 -22 58.5t-64 20.5q-92 0 -92 -105v-5zM301 154v138q-18 -19 -73.5 -37t-69.5 -26q-41 -26 -41 -85q0 -92 76 -92q42 0 75 30.5t33 71.5zM172 610l70 142h98l-108 -142h-60z" />
    <glyph glyph-name="acircumflex" unicode="&#xe2;" horiz-adv-x="444" 
d="M126 374h-84q0 92 42.5 134t137.5 42q47 0 79.5 -11.5t48.5 -26t24.5 -39t9.5 -39t1 -38.5v-299q0 -15 1 -22t7 -14t18 -7q13 0 20 5v-60q-30 -5 -49 -5q-16 0 -25.5 1.5t-22.5 7t-20 21t-8 39.5h-2q-20 -35 -55.5 -56t-73.5 -21q-73 0 -109.5 41t-36.5 115
q0 117 101 148l113 34q30 9 43 20.5t15.5 22.5t2.5 38q0 38 -22 58.5t-64 20.5q-92 0 -92 -105v-5zM301 154v138q-18 -19 -73.5 -37t-69.5 -26q-41 -26 -41 -85q0 -92 76 -92q42 0 75 30.5t33 71.5zM83 610l101 142h77l100 -142h-78l-61 88l-61 -88h-78z" />
    <glyph glyph-name="atilde" unicode="&#xe3;" horiz-adv-x="444" 
d="M126 374h-84q0 92 42.5 134t137.5 42q47 0 79.5 -11.5t48.5 -26t24.5 -39t9.5 -39t1 -38.5v-299q0 -15 1 -22t7 -14t18 -7q13 0 20 5v-60q-30 -5 -49 -5q-16 0 -25.5 1.5t-22.5 7t-20 21t-8 39.5h-2q-20 -35 -55.5 -56t-73.5 -21q-73 0 -109.5 41t-36.5 115
q0 117 101 148l113 34q30 9 43 20.5t15.5 22.5t2.5 38q0 38 -22 58.5t-64 20.5q-92 0 -92 -105v-5zM301 154v138q-18 -19 -73.5 -37t-69.5 -26q-41 -26 -41 -85q0 -92 76 -92q42 0 75 30.5t33 71.5zM315 740h54q0 -42 -23 -76.5t-63 -34.5q-24 0 -65.5 19t-49.5 19
q-32 0 -39 -45h-54q0 45 27 78t66 33q22 0 60 -19q42 -19 52 -19q12 0 20 8.5t10 15.5t5 21z" />
    <glyph glyph-name="adieresis" unicode="&#xe4;" horiz-adv-x="444" 
d="M126 374h-84q0 92 42.5 134t137.5 42q47 0 79.5 -11.5t48.5 -26t24.5 -39t9.5 -39t1 -38.5v-299q0 -15 1 -22t7 -14t18 -7q13 0 20 5v-60q-30 -5 -49 -5q-16 0 -25.5 1.5t-22.5 7t-20 21t-8 39.5h-2q-20 -35 -55.5 -56t-73.5 -21q-73 0 -109.5 41t-36.5 115
q0 117 101 148l113 34q30 9 43 20.5t15.5 22.5t2.5 38q0 38 -22 58.5t-64 20.5q-92 0 -92 -105v-5zM301 154v138q-18 -19 -73.5 -37t-69.5 -26q-41 -26 -41 -85q0 -92 76 -92q42 0 75 30.5t33 71.5zM102 634v101h78v-101h-78zM264 634v101h78v-101h-78z" />
    <glyph glyph-name="aring" unicode="&#xe5;" horiz-adv-x="444" 
d="M126 374h-84q0 92 42.5 134t137.5 42q47 0 79.5 -11.5t48.5 -26t24.5 -39t9.5 -39t1 -38.5v-299q0 -15 1 -22t7 -14t18 -7q13 0 20 5v-60q-30 -5 -49 -5q-16 0 -25.5 1.5t-22.5 7t-20 21t-8 39.5h-2q-20 -35 -55.5 -56t-73.5 -21q-73 0 -109.5 41t-36.5 115
q0 117 101 148l113 34q30 9 43 20.5t15.5 22.5t2.5 38q0 38 -22 58.5t-64 20.5q-92 0 -92 -105v-5zM301 154v138q-18 -19 -73.5 -37t-69.5 -26q-41 -26 -41 -85q0 -92 76 -92q42 0 75 30.5t33 71.5zM123 690q0 41 29 70t70 29t70 -29t29 -70t-29 -70t-70 -29t-70 29t-29 70z
M165 690q0 -23 17 -40t40 -17t40 17t17 40t-17 40t-40 17t-40 -17t-17 -40z" />
    <glyph glyph-name="ae" unicode="&#xe6;" horiz-adv-x="667" 
d="M371 324h182v29q0 54 -20.5 92.5t-68.5 38.5q-29 0 -49 -16.5t-29 -42t-12 -45t-3 -36.5v-20zM553 176h84q0 -25 -8 -54.5t-25.5 -61.5t-53 -53t-82.5 -21q-39 0 -69 12t-44.5 30t-21.5 32t-9 24h-2q-45 -98 -149 -98q-67 0 -107 42t-40 114q0 56 26.5 94.5t75.5 53.5
l125 38q23 7 30 24t7 53q0 79 -80 79q-86 0 -86 -105v-5h-84q0 91 42.5 133.5t133.5 42.5q52 0 85.5 -20t42.5 -54h2q13 33 49.5 53.5t76.5 20.5q44 0 76.5 -16.5t50 -40.5t27.5 -61t12.5 -68t2.5 -72v-34h-273q0 -34 0.5 -54t5.5 -53t14 -51.5t28 -33t46 -14.5
q37 0 59 24.5t27 48.5t5 51zM290 174v94v11h-2q-3 -6 -30 -16.5t-62 -21t-38 -11.5q-44 -16 -44 -85q0 -40 19 -66.5t56 -26.5q33 0 55.5 14.5t31.5 37.5t11.5 39t2.5 31z" />
    <glyph glyph-name="ccedilla" unicode="&#xe7;" horiz-adv-x="426" 
d="M151 -81l47 67q-87 7 -126.5 75t-39.5 200q0 45 4 82t16 77t32.5 67.5t55.5 45t83 17.5q42 0 74 -12.5t49.5 -31.5t29 -44t15 -46.5t3.5 -42.5h-84q0 45 -20.5 78t-64.5 33q-22 0 -38.5 -7.5t-33 -29.5t-25 -68.5t-8.5 -116.5q0 -30 1 -49.5t6 -53.5t15 -54.5t30.5 -36.5
t49.5 -16q34 0 54.5 22.5t27 50t6.5 61.5h84q0 -44 -13 -84.5t-49.5 -74.5t-91.5 -40l-29 -41l2 -2q14 6 30 6q30 0 55 -19t25 -57q0 -37 -32 -61.5t-75 -24.5q-65 0 -99 20l15 34q36 -12 64 -12q55 0 55 41q0 17 -14 27t-33 10q-29 0 -38 -7z" />
    <glyph glyph-name="egrave" unicode="&#xe8;" horiz-adv-x="444" 
d="M128 324h191v29q0 54 -21.5 92.5t-71.5 38.5q-31 0 -52 -16.5t-30 -42t-12.5 -45t-3.5 -36.5v-20zM407 258h-282q0 -28 0.5 -44.5t3 -45t9.5 -45.5t17.5 -35t29 -27t43.5 -9q37 0 59 24.5t27 48.5t5 51h84q0 -25 -8 -54t-26.5 -61.5t-56.5 -53.5t-89 -21
q-97 0 -141.5 67.5t-44.5 207.5q0 45 4 82t16 77t32.5 67.5t55.5 45t83 17.5q47 0 81.5 -16.5t52.5 -40.5t29 -61t13.5 -68t2.5 -72v-34zM104 752h98l70 -142h-60z" />
    <glyph glyph-name="eacute" unicode="&#xe9;" horiz-adv-x="444" 
d="M128 324h191v29q0 54 -21.5 92.5t-71.5 38.5q-31 0 -52 -16.5t-30 -42t-12.5 -45t-3.5 -36.5v-20zM407 258h-282q0 -28 0.5 -44.5t3 -45t9.5 -45.5t17.5 -35t29 -27t43.5 -9q37 0 59 24.5t27 48.5t5 51h84q0 -25 -8 -54t-26.5 -61.5t-56.5 -53.5t-89 -21
q-97 0 -141.5 67.5t-44.5 207.5q0 45 4 82t16 77t32.5 67.5t55.5 45t83 17.5q47 0 81.5 -16.5t52.5 -40.5t29 -61t13.5 -68t2.5 -72v-34zM172 610l70 142h98l-108 -142h-60z" />
    <glyph glyph-name="ecircumflex" unicode="&#xea;" horiz-adv-x="444" 
d="M128 324h191v29q0 54 -21.5 92.5t-71.5 38.5q-31 0 -52 -16.5t-30 -42t-12.5 -45t-3.5 -36.5v-20zM407 258h-282q0 -28 0.5 -44.5t3 -45t9.5 -45.5t17.5 -35t29 -27t43.5 -9q37 0 59 24.5t27 48.5t5 51h84q0 -25 -8 -54t-26.5 -61.5t-56.5 -53.5t-89 -21
q-97 0 -141.5 67.5t-44.5 207.5q0 45 4 82t16 77t32.5 67.5t55.5 45t83 17.5q47 0 81.5 -16.5t52.5 -40.5t29 -61t13.5 -68t2.5 -72v-34zM83 610l101 142h77l100 -142h-78l-61 88l-61 -88h-78z" />
    <glyph glyph-name="edieresis" unicode="&#xeb;" horiz-adv-x="444" 
d="M128 324h191v29q0 54 -21.5 92.5t-71.5 38.5q-31 0 -52 -16.5t-30 -42t-12.5 -45t-3.5 -36.5v-20zM407 258h-282q0 -28 0.5 -44.5t3 -45t9.5 -45.5t17.5 -35t29 -27t43.5 -9q37 0 59 24.5t27 48.5t5 51h84q0 -25 -8 -54t-26.5 -61.5t-56.5 -53.5t-89 -21
q-97 0 -141.5 67.5t-44.5 207.5q0 45 4 82t16 77t32.5 67.5t55.5 45t83 17.5q47 0 81.5 -16.5t52.5 -40.5t29 -61t13.5 -68t2.5 -72v-34zM102 634v101h78v-101h-78zM264 634v101h78v-101h-78z" />
    <glyph glyph-name="igrave" unicode="&#xec;" 
d="M60 0v536h84v-536h-84zM-16 752h98l70 -142h-60z" />
    <glyph glyph-name="iacute" unicode="&#xed;" 
d="M60 0v536h84v-536h-84zM52 610l70 142h98l-108 -142h-60z" />
    <glyph glyph-name="icircumflex" unicode="&#xee;" 
d="M60 0v536h84v-536h-84zM-37 610l101 142h77l100 -142h-78l-61 88l-61 -88h-78z" />
    <glyph glyph-name="idieresis" unicode="&#xef;" 
d="M60 0v536h84v-536h-84zM-18 634v101h78v-101h-78zM144 634v101h78v-101h-78z" />
    <glyph glyph-name="eth" unicode="&#xf0;" horiz-adv-x="444" 
d="M220 470q-103 0 -103 -202q0 -48 4 -83.5t15 -67.5t32 -48.5t52 -16.5q61 0 84 57.5t23 158.5q0 202 -107 202zM120 595l-38 42l71 40q-30 30 -77 67l64 28q44 -35 72 -61l74 42l38 -42l-70 -40q81 -81 121 -174.5t40 -228.5q0 -282 -193 -282t-193 282q0 268 193 268
q32 0 59 -17h2q-44 67 -90 117z" />
    <glyph glyph-name="ntilde" unicode="&#xf1;" horiz-adv-x="463" 
d="M55 0v536h80v-63h2q16 36 52.5 56.5t77.5 20.5q40 0 68.5 -12.5t42 -28t21 -43t8.5 -43.5t1 -43v-380h-84v370q0 21 -2 35t-9 33.5t-24 29.5t-44 10q-40 0 -73 -27.5t-33 -80.5v-370h-84zM325 740h54q0 -42 -23 -76.5t-63 -34.5q-24 0 -65.5 19t-49.5 19q-32 0 -39 -45
h-54q0 45 27 78t66 33q22 0 60 -19q42 -19 52 -19q12 0 20 8.5t10 15.5t5 21z" />
    <glyph glyph-name="ograve" unicode="&#xf2;" horiz-adv-x="444" 
d="M29 268q0 282 193 282t193 -282t-193 -282t-193 282zM220 52q61 0 84 57.5t23 158.5q0 48 -4.5 83.5t-15.5 67.5t-33 48.5t-54 16.5q-31 0 -52 -17t-31.5 -48.5t-15 -67.5t-4.5 -83q0 -48 4 -83.5t15 -67.5t32 -48.5t52 -16.5zM104 752h98l70 -142h-60z" />
    <glyph glyph-name="oacute" unicode="&#xf3;" horiz-adv-x="444" 
d="M29 268q0 282 193 282t193 -282t-193 -282t-193 282zM220 52q61 0 84 57.5t23 158.5q0 48 -4.5 83.5t-15.5 67.5t-33 48.5t-54 16.5q-31 0 -52 -17t-31.5 -48.5t-15 -67.5t-4.5 -83q0 -48 4 -83.5t15 -67.5t32 -48.5t52 -16.5zM172 610l70 142h98l-108 -142h-60z" />
    <glyph glyph-name="ocircumflex" unicode="&#xf4;" horiz-adv-x="444" 
d="M29 268q0 282 193 282t193 -282t-193 -282t-193 282zM220 52q61 0 84 57.5t23 158.5q0 48 -4.5 83.5t-15.5 67.5t-33 48.5t-54 16.5q-31 0 -52 -17t-31.5 -48.5t-15 -67.5t-4.5 -83q0 -48 4 -83.5t15 -67.5t32 -48.5t52 -16.5zM83 610l101 142h77l100 -142h-78l-61 88
l-61 -88h-78z" />
    <glyph glyph-name="otilde" unicode="&#xf5;" horiz-adv-x="444" 
d="M29 268q0 282 193 282t193 -282t-193 -282t-193 282zM220 52q61 0 84 57.5t23 158.5q0 48 -4.5 83.5t-15.5 67.5t-33 48.5t-54 16.5q-31 0 -52 -17t-31.5 -48.5t-15 -67.5t-4.5 -83q0 -48 4 -83.5t15 -67.5t32 -48.5t52 -16.5zM315 740h54q0 -42 -23 -76.5t-63 -34.5
q-24 0 -65.5 19t-49.5 19q-32 0 -39 -45h-54q0 45 27 78t66 33q22 0 60 -19q42 -19 52 -19q12 0 20 8.5t10 15.5t5 21z" />
    <glyph glyph-name="odieresis" unicode="&#xf6;" horiz-adv-x="444" 
d="M29 268q0 282 193 282t193 -282t-193 -282t-193 282zM220 52q61 0 84 57.5t23 158.5q0 48 -4.5 83.5t-15.5 67.5t-33 48.5t-54 16.5q-31 0 -52 -17t-31.5 -48.5t-15 -67.5t-4.5 -83q0 -48 4 -83.5t15 -67.5t32 -48.5t52 -16.5zM102 634v101h78v-101h-78zM264 634v101h78
v-101h-78z" />
    <glyph glyph-name="divide" unicode="&#xf7;" horiz-adv-x="600" 
d="M47 220v66h506v-66h-506zM244 464q0 23 16.5 39.5t39.5 16.5t39.5 -16.5t16.5 -39.5t-16.5 -39.5t-39.5 -16.5t-39.5 16.5t-16.5 39.5zM244 42q0 23 16.5 39.5t39.5 16.5t39.5 -16.5t16.5 -39.5t-16.5 -39.5t-39.5 -16.5t-39.5 16.5t-16.5 39.5z" />
    <glyph glyph-name="oslash" unicode="&#xf8;" horiz-adv-x="444" 
d="M310 407l-143 -336q21 -19 53 -19q61 0 84 57.5t23 158.5q0 89 -17 139zM134 126l143 337q-24 21 -57 21q-31 0 -52 -17t-31.5 -48.5t-15 -67.5t-4.5 -83q0 -90 17 -142zM64 -40l32 76q-67 66 -67 232q0 282 193 282q50 0 84 -18l26 61l48 -21l-30 -71q65 -71 65 -233
q0 -282 -193 -282q-50 0 -84 18l-27 -63z" />
    <glyph glyph-name="ugrave" unicode="&#xf9;" horiz-adv-x="463" 
d="M408 536v-536h-80v63h-2q-16 -36 -52.5 -56.5t-77.5 -20.5q-40 0 -68.5 12.5t-42 28t-21 43t-8.5 43.5t-1 43v380h84v-370q0 -21 2 -35t9 -33.5t24 -29.5t44 -10q40 0 73 27.5t33 80.5v370h84zM114 752h98l70 -142h-60z" />
    <glyph glyph-name="uacute" unicode="&#xfa;" horiz-adv-x="463" 
d="M408 536v-536h-80v63h-2q-16 -36 -52.5 -56.5t-77.5 -20.5q-40 0 -68.5 12.5t-42 28t-21 43t-8.5 43.5t-1 43v380h84v-370q0 -21 2 -35t9 -33.5t24 -29.5t44 -10q40 0 73 27.5t33 80.5v370h84zM182 610l70 142h98l-108 -142h-60z" />
    <glyph glyph-name="ucircumflex" unicode="&#xfb;" horiz-adv-x="463" 
d="M408 536v-536h-80v63h-2q-16 -36 -52.5 -56.5t-77.5 -20.5q-40 0 -68.5 12.5t-42 28t-21 43t-8.5 43.5t-1 43v380h84v-370q0 -21 2 -35t9 -33.5t24 -29.5t44 -10q40 0 73 27.5t33 80.5v370h84zM93 610l101 142h77l100 -142h-78l-61 88l-61 -88h-78z" />
    <glyph glyph-name="udieresis" unicode="&#xfc;" horiz-adv-x="463" 
d="M408 536v-536h-80v63h-2q-16 -36 -52.5 -56.5t-77.5 -20.5q-40 0 -68.5 12.5t-42 28t-21 43t-8.5 43.5t-1 43v380h84v-370q0 -21 2 -35t9 -33.5t24 -29.5t44 -10q40 0 73 27.5t33 80.5v370h84zM112 634v101h78v-101h-78zM274 634v101h78v-101h-78z" />
    <glyph glyph-name="yacute" unicode="&#xfd;" horiz-adv-x="406" 
d="M168 -11l-158 547h92l106 -430h2l94 430h92l-155 -572q-9 -34 -17 -54t-23.5 -42.5t-41 -33t-61.5 -10.5q-19 0 -61 3v66q18 -3 49 -3q48 0 66 52zM153 610l70 142h98l-108 -142h-60z" />
    <glyph glyph-name="thorn" unicode="&#xfe;" horiz-adv-x="463" 
d="M134 268q0 -210 108 -210q55 0 76.5 54.5t21.5 165.5q0 97 -21.5 148.5t-76.5 51.5q-64 0 -86 -53t-22 -157zM55 -176v890h84v-239h2q9 33 42.5 54t69.5 21q175 0 175 -272q0 -40 -4.5 -77.5t-17 -77.5t-31.5 -69.5t-50.5 -48.5t-71.5 -19q-36 0 -67 20.5t-45 54.5h-2
v-237h-84z" />
    <glyph glyph-name="ydieresis" unicode="&#xff;" horiz-adv-x="406" 
d="M168 -11l-158 547h92l106 -430h2l94 430h92l-155 -572q-9 -34 -17 -54t-23.5 -42.5t-41 -33t-61.5 -10.5q-19 0 -61 3v66q18 -3 49 -3q48 0 66 52zM83 634v101h78v-101h-78zM245 634v101h78v-101h-78z" />
    <glyph glyph-name="dotlessi" unicode="&#x131;" 
d="M60 0v536h84v-536h-84z" />
    <glyph glyph-name="Lslash" unicode="&#x141;" horiz-adv-x="444" 
d="M-8 197v72l66 47v398h88v-335l194 139v-72l-194 -139v-229h290v-78h-378v244z" />
    <glyph glyph-name="lslash" unicode="&#x142;" 
d="M60 0v276l-60 -64v78l60 64v360h84v-271l60 63v-78l-60 -63v-365h-84z" />
    <glyph glyph-name="OE" unicode="&#x152;" horiz-adv-x="796" 
d="M500 334v-256h272v-78h-358v63h-2q-13 -35 -50.5 -56t-83.5 -21q-48 0 -85.5 13.5t-62 40t-41.5 59t-25.5 77t-12 87t-3.5 94.5q0 60 5 108.5t19.5 99.5t39 85t67 56t99.5 22q42 0 82 -18t56 -51h2v55h342v-78h-260v-224h244v-78h-244zM412 232v231q0 38 -1.5 60t-8.5 51
t-20.5 44t-39.5 26.5t-64 11.5q-37 0 -63 -16t-41.5 -41t-24 -66t-11 -81t-2.5 -95t2.5 -95t11 -81t24 -66t41.5 -41t63 -16q78 0 106 46t28 128z" />
    <glyph glyph-name="oe" unicode="&#x153;" horiz-adv-x="722" 
d="M683 292v-34h-273q0 -34 0.5 -54t5.5 -53t14 -51.5t28 -33t46 -14.5q37 0 59 24.5t27 48.5t5 51h84q0 -25 -8 -54.5t-25.5 -61.5t-53 -53t-82.5 -21q-32 0 -58 9t-40 20t-25 27t-14 22.5t-5 13.5q-19 -43 -56.5 -67.5t-84.5 -24.5q-188 0 -188 282t188 282q54 0 88 -21.5
t59 -69.5q19 42 57 66.5t83 24.5q44 0 76.5 -16.5t50 -40.5t27.5 -61t12.5 -68t2.5 -72zM332 268q0 216 -105 216q-100 0 -100 -216t100 -216q105 0 105 216zM413 344v-20h182v29q0 54 -20.5 92.5t-68.5 38.5q-29 0 -49 -16.5t-29 -42t-12 -45t-3 -36.5z" />
    <glyph glyph-name="Scaron" unicode="&#x160;" horiz-adv-x="500" 
d="M449 529h-88q0 127 -111 127q-56 0 -87 -30t-31 -86q0 -41 18.5 -68.5t48.5 -42t65.5 -26t71.5 -25t66 -33.5t48.5 -57t18.5 -90q0 -59 -20 -102.5t-53.5 -66t-70.5 -33t-78 -10.5q-120 0 -168 58.5t-48 179.5h88q0 -30 1.5 -48.5t8.5 -43.5t21 -39t40 -24.5t63 -10.5
q53 0 88.5 35t35.5 91q0 41 -18.5 69t-48.5 43t-66 26.5t-71.5 26t-65.5 34.5t-48.5 57.5t-18.5 90.5q0 23 4 46t17.5 51.5t35.5 49.5t61 35.5t91 14.5q197 0 200 -199zM389 895l-101 -142h-77l-100 142h78l61 -88l61 88h78z" />
    <glyph glyph-name="scaron" unicode="&#x161;" horiz-adv-x="407" 
d="M369 379h-84q0 54 -17.5 79.5t-61.5 25.5q-87 0 -87 -82q0 -13 3.5 -24t12 -19.5t15 -14t22 -12t23.5 -9.5t28 -9t28 -9q32 -11 49 -19t39.5 -24.5t32.5 -43t10 -64.5q0 -82 -47.5 -125t-125.5 -43q-52 0 -89 15.5t-55 35t-27.5 50t-11 48t-1.5 41.5h84q0 -124 100 -124
q18 0 36 5.5t35.5 27t17.5 56.5q0 12 -2 22t-7.5 18.5t-9.5 14.5t-14.5 13t-15.5 10.5t-19.5 9t-19.5 7t-22 7.5t-21 7q-29 10 -40 14t-33.5 17t-32 26.5t-18 38t-8.5 56.5q0 72 48.5 110t122.5 38q45 0 77 -12.5t48 -29t25 -43t11 -44t2 -42.5zM343 752l-101 -142h-77
l-100 142h78l61 -88l61 88h78z" />
    <glyph glyph-name="Ydieresis" unicode="&#x178;" horiz-adv-x="462" 
d="M187 280l-189 434h97l136 -334l141 334h92l-189 -434v-280h-88v280zM111 777v101h78v-101h-78zM273 777v101h78v-101h-78z" />
    <glyph glyph-name="Zcaron" unicode="&#x17d;" horiz-adv-x="463" 
d="M23 0v74l321 562h-303v78h395v-81l-321 -555h325v-78h-417zM371 895l-101 -142h-77l-100 142h78l61 -88l61 88h78z" />
    <glyph glyph-name="zcaron" unicode="&#x17e;" horiz-adv-x="389" 
d="M39 464v72h323v-70l-240 -394h238v-72h-333v66l243 398h-231zM334 752l-101 -142h-77l-100 142h78l61 -88l61 88h78z" />
    <glyph glyph-name="florin" unicode="&#x192;" horiz-adv-x="480" 
d="M-17 -172l14 66q16 -4 49 -4q35 0 52 19t27 71l79 400h-104l11 60h104l33 156q14 64 55 91t111 27q22 0 48 -4l-14 -66q-14 4 -35 4q-22 0 -37.5 -6.5t-24.5 -14.5t-16.5 -28t-11 -34.5t-9.5 -46.5l-15 -78h109l-11 -60h-109l-80 -411q-15 -73 -55 -109t-113 -36
q-33 0 -57 4z" />
    <glyph glyph-name="circumflex" unicode="&#x2c6;" 
d="M-37 610l101 142h77l100 -142h-78l-61 88l-61 -88h-78z" />
    <glyph glyph-name="caron" unicode="&#x2c7;" 
d="M241 752l-101 -142h-77l-100 142h78l61 -88l61 88h78z" />
    <glyph glyph-name="uni02C9" unicode="&#x2c9;" 
d="M-30 655v54h264v-54h-264z" />
    <glyph glyph-name="breve" unicode="&#x2d8;" 
d="M-23 745h48q0 -27 24.5 -47t52.5 -20t52.5 20t24.5 47h48q0 -18 -5.5 -37.5t-18.5 -41t-39 -35t-62 -13.5t-62 13.5t-39 35t-18.5 41t-5.5 37.5z" />
    <glyph glyph-name="dotaccent" unicode="&#x2d9;" 
d="M63 634v101h78v-101h-78z" />
    <glyph glyph-name="ring" unicode="&#x2da;" 
d="M3 690q0 41 29 70t70 29t70 -29t29 -70t-29 -70t-70 -29t-70 29t-29 70zM45 690q0 -23 17 -40t40 -17t40 17t17 40t-17 40t-40 17t-40 -17t-17 -40z" />
    <glyph glyph-name="ogonek" unicode="&#x2db;" 
d="M127 6h53q-61 -44 -82.5 -73t-21.5 -57q0 -46 40 -46q24 0 66 21l18 -35q-34 -28 -102 -28q-94 0 -94 78q0 82 123 140z" />
    <glyph glyph-name="tilde" unicode="&#x2dc;" 
d="M195 740h54q0 -42 -23 -76.5t-63 -34.5q-24 0 -65.5 19t-49.5 19q-32 0 -39 -45h-54q0 45 27 78t66 33q22 0 60 -19q42 -19 52 -19q12 0 20 8.5t10 15.5t5 21z" />
    <glyph glyph-name="hungarumlaut" unicode="&#x2dd;" 
d="M-50 610l70 142h98l-108 -142h-60zM114 610l70 142h98l-108 -142h-60z" />
    <glyph glyph-name="uni03A9" unicode="&#x3a9;" horiz-adv-x="615" 
d="M167 65v3q-50 55 -82 135t-32 175q0 145 72.5 237t184.5 92q113 0 181.5 -94.5t68.5 -228.5q0 -99 -33.5 -182t-81.5 -134v-3h127v-65h-209v48q51 42 86 125.5t35 193.5q0 67 -18.5 127.5t-59.5 103t-97 42.5q-82 0 -131 -78t-49 -197q0 -103 36 -190.5t85 -126.5v-48
h-209v65h126z" />
    <glyph glyph-name="uni03BC" unicode="&#x3bc;" horiz-adv-x="463" 
d="M408 536v-536h-80v63h-2q-16 -36 -52.5 -56.5t-77.5 -20.5q-39 0 -57 14v-176h-84v712h84v-370q0 -21 2 -35t9 -33.5t24 -29.5t44 -10q40 0 73 27.5t33 80.5v370h84z" />
    <glyph glyph-name="pi" unicode="&#x3c0;" horiz-adv-x="503" 
d="M479 451h-68v-311q0 -92 13 -140h-73q-15 32 -15 136v315h-149q-3 -103 -21.5 -241.5t-41.5 -209.5h-73q24 80 42 213.5t20 237.5q-60 0 -93 -11l-11 52q40 27 129 27h347z" />
    <glyph glyph-name="endash" unicode="&#x2013;" horiz-adv-x="500" 
d="M0 248v72h500v-72h-500z" />
    <glyph glyph-name="emdash" unicode="&#x2014;" horiz-adv-x="1000" 
d="M0 248v72h1000v-72h-1000z" />
    <glyph glyph-name="quoteleft" unicode="&#x2018;" horiz-adv-x="240" 
d="M166 566v-106h-92v87q0 34 2.5 56t11 46.5t28 40.5t50.5 24v-47q-26 -12 -35 -29t-9 -48v-24h44z" />
    <glyph glyph-name="quoteright" unicode="&#x2019;" horiz-adv-x="240" 
d="M74 608v106h92v-87q0 -34 -2.5 -56t-11 -46.5t-28 -40.5t-50.5 -24v47q26 12 35 29t9 48v24h-44z" />
    <glyph glyph-name="quotesinglbase" unicode="&#x201a;" horiz-adv-x="240" 
d="M74 0v106h92v-87q0 -34 -2.5 -56t-11 -46.5t-28 -40.5t-50.5 -24v47q26 12 35 29t9 48v24h-44z" />
    <glyph glyph-name="quotedblleft" unicode="&#x201c;" horiz-adv-x="407" 
d="M328 566v-106h-92v87q0 34 2.5 56t11 46.5t28 40.5t50.5 24v-47q-26 -12 -35 -29t-9 -48v-24h44zM171 566v-106h-92v87q0 34 2.5 56t11 46.5t28 40.5t50.5 24v-47q-26 -12 -35 -29t-9 -48v-24h44z" />
    <glyph glyph-name="quotedblright" unicode="&#x201d;" horiz-adv-x="407" 
d="M328 714v-87q0 -34 -2.5 -56t-11 -46.5t-28 -40.5t-50.5 -24v47q26 12 35 29t9 48v24h-44v106h92zM171 714v-87q0 -34 -2.5 -56t-11 -46.5t-28 -40.5t-50.5 -24v47q26 12 35 29t9 48v24h-44v106h92z" />
    <glyph glyph-name="quotedblbase" unicode="&#x201e;" horiz-adv-x="407" 
d="M328 106v-87q0 -34 -2.5 -56t-11 -46.5t-28 -40.5t-50.5 -24v47q26 12 35 29t9 48v24h-44v106h92zM171 106v-87q0 -34 -2.5 -56t-11 -46.5t-28 -40.5t-50.5 -24v47q26 12 35 29t9 48v24h-44v106h92z" />
    <glyph glyph-name="dagger" unicode="&#x2020;" horiz-adv-x="482" 
d="M199 508v206h84v-206h172v-72h-172v-576h-84v576h-172v72h172z" />
    <glyph glyph-name="daggerdbl" unicode="&#x2021;" horiz-adv-x="482" 
d="M199 521v193h84v-193h172v-72h-172v-317h172v-72h-172v-200h-84v200h-172v72h172v317h-172v72h172z" />
    <glyph glyph-name="bullet" unicode="&#x2022;" horiz-adv-x="500" 
d="M72 357q0 73 52 125.5t126 52.5t126 -52.5t52 -125.5t-52 -125.5t-126 -52.5t-126 52.5t-52 125.5z" />
    <glyph glyph-name="ellipsis" unicode="&#x2026;" horiz-adv-x="1000" 
d="M121 0v106h92v-106h-92zM454 0v106h92v-106h-92zM787 0v106h92v-106h-92z" />
    <glyph glyph-name="perthousand" unicode="&#x2030;" horiz-adv-x="1037" 
d="M860 40q27 0 40.5 19.5t16 44.5t2.5 74t-2.5 74t-16 44.5t-40.5 19.5t-40.5 -19.5t-16 -44.5t-2.5 -74t2.5 -74t16 -44.5t40.5 -19.5zM169 -14l310 722h70l-310 -722h-70zM177 378q27 0 40.5 19.5t16 44.5t2.5 74t-2.5 74t-16 44.5t-40.5 19.5t-40.5 -19.5t-16 -44.5
t-2.5 -74t2.5 -74t16 -44.5t40.5 -19.5zM860 -14q-35 0 -59.5 11t-38 27.5t-21.5 43.5t-10 51.5t-2 58.5t2 58.5t10 51.5t21.5 43.5t38 27.5t59.5 11t59.5 -11t38 -27.5t21.5 -43.5t10 -51.5t2 -58.5t-2 -58.5t-10 -51.5t-21.5 -43.5t-38 -27.5t-59.5 -11zM177 324
q-35 0 -59.5 11t-38 27.5t-21.5 43.5t-10 51.5t-2 58.5t2 58.5t10 51.5t21.5 43.5t38 27.5t59.5 11t59.5 -11t38 -27.5t21.5 -43.5t10 -51.5t2 -58.5t-2 -58.5t-10 -51.5t-21.5 -43.5t-38 -27.5t-59.5 -11zM551 40q27 0 40.5 19.5t16 44.5t2.5 74t-2.5 74t-16 44.5
t-40.5 19.5t-40.5 -19.5t-16 -44.5t-2.5 -74t2.5 -74t16 -44.5t40.5 -19.5zM551 -14q-35 0 -59.5 11t-38 27.5t-21.5 43.5t-10 51.5t-2 58.5t2 58.5t10 51.5t21.5 43.5t38 27.5t59.5 11t59.5 -11t38 -27.5t21.5 -43.5t10 -51.5t2 -58.5t-2 -58.5t-10 -51.5t-21.5 -43.5
t-38 -27.5t-59.5 -11z" />
    <glyph glyph-name="guilsinglleft" unicode="&#x2039;" horiz-adv-x="240" 
d="M49 245v78l142 143v-88l-94 -94l94 -94v-88z" />
    <glyph glyph-name="guilsinglright" unicode="&#x203a;" horiz-adv-x="240" 
d="M191 323v-78l-142 -143v88l94 94l-94 94v88z" />
    <glyph glyph-name="fraction" unicode="&#x2044;" horiz-adv-x="167" 
d="M-164 -31l435 756h60l-435 -756h-60z" />
    <glyph glyph-name="Euro" unicode="&#x20ac;" horiz-adv-x="480" 
d="M465 661l-32 -71q-60 52 -117 52q-40 0 -67.5 -16t-42 -46.5t-20.5 -59t-10 -69.5h227l-21 -60h-210l-1 -55h195l-21 -60h-173q1 -43 6.5 -75.5t19 -69t42 -57t71.5 -20.5q68 0 144 62v-87q-67 -43 -151 -43q-64 0 -108 23.5t-67.5 67t-34.5 90.5t-14 109h-61l21 60h39
l1 55h-62l21 60h44q24 260 229 260q76 0 153 -50z" />
    <glyph glyph-name="afii61289" unicode="&#x2113;" horiz-adv-x="429" 
d="M376 140l34 -31q-57 -118 -164 -118q-75 0 -111 51t-38 134v14q-7 -6 -15 -13.5t-18.5 -16.5t-16.5 -14l-22 44q59 55 72 68v271q0 122 40.5 179t99.5 57q53 0 81 -44t28 -116q0 -166 -177 -358v-40q0 -79 25.5 -117t66.5 -38q68 0 115 88zM169 529v-204q128 158 128 281
q0 99 -59 99q-29 0 -49 -42t-20 -134z" />
    <glyph glyph-name="trademark" unicode="&#x2122;" horiz-adv-x="990" 
d="M185 302v352h-133v60h329v-60h-130v-352h-66zM848 302v340h-2l-139 -340h-39l-139 340h-2v-340h-66v412h98l130 -316l127 316h98v-412h-66z" />
    <glyph glyph-name="Omega" unicode="&#x2126;" horiz-adv-x="615" 
d="M167 65v3q-50 55 -82 135t-32 175q0 145 72.5 237t184.5 92q113 0 181.5 -94.5t68.5 -228.5q0 -99 -33.5 -182t-81.5 -134v-3h127v-65h-209v48q51 42 86 125.5t35 193.5q0 67 -18.5 127.5t-59.5 103t-97 42.5q-82 0 -131 -78t-49 -197q0 -103 36 -190.5t85 -126.5v-48
h-209v65h126z" />
    <glyph glyph-name="estimated" unicode="&#x212e;" horiz-adv-x="870" 
d="M836 337h-650q-5 0 -5 -4v-197q0 -13 9 -22q104 -107 245 -107q76 0 143 32t116 87h57q-54 -64 -138 -101.5t-179 -37.5q-166 0 -283 105.5t-117 254.5t117 255t283 106t284 -106t118 -255v-10zM688 363v197q0 14 -9 24q-104 102 -244 102t-244 -106q-10 -9 -10 -24v-193
q0 -7 5 -7h498q4 0 4 7z" />
    <glyph glyph-name="partialdiff" unicode="&#x2202;" horiz-adv-x="484" 
d="M91 668l-24 59q61 53 147 53q94 0 159.5 -94.5t65.5 -279.5q0 -192 -60 -303.5t-171 -111.5q-81 0 -125.5 66t-44.5 162q0 115 56 186.5t134 71.5q50 0 86 -26.5t50 -55.5h1q1 10 1 39q0 121 -46.5 201t-113.5 80q-62 0 -115 -47zM215 57h1q57 0 95 75.5t47 183.5
q-11 37 -43 66.5t-76 29.5q-52 0 -89 -57.5t-37 -136.5q0 -73 27.5 -117t74.5 -44z" />
    <glyph glyph-name="Delta" unicode="&#x2206;" horiz-adv-x="564" 
d="M28 0v51l213 662h86l209 -661v-52h-508zM103 64h354l-119 367q-6 24 -28 90t-27 92h-4q-4 -23 -24 -85t-26 -83z" />
    <glyph glyph-name="product" unicode="&#x220f;" horiz-adv-x="615" 
d="M590 624h-92v-720h-74v720h-234v-720h-74v720h-92v72h566v-72z" />
    <glyph glyph-name="summation" unicode="&#x2211;" horiz-adv-x="486" 
d="M466 -96h-444v53l232 343l-223 341v55h420v-66h-319v-4l206 -313l-225 -331v-4h353v-74z" />
    <glyph glyph-name="minus" unicode="&#x2212;" horiz-adv-x="600" 
d="M47 220v66h506v-66h-506z" />
    <glyph glyph-name="uni2215" unicode="&#x2215;" horiz-adv-x="167" 
d="M-164 -31l435 756h60l-435 -756h-60z" />
    <glyph glyph-name="uni2219" unicode="&#x2219;" horiz-adv-x="240" 
d="M64 327q0 23 16.5 39.5t39.5 16.5t39.5 -16.5t16.5 -39.5t-16.5 -39.5t-39.5 -16.5t-39.5 16.5t-16.5 39.5z" />
    <glyph glyph-name="radical" unicode="&#x221a;" horiz-adv-x="513" 
d="M510 830l-195 -977h-65l-139 460l-66 -25l-14 47l128 50l106 -352q13 -63 16 -79h1q9 55 12 79l161 797h55z" />
    <glyph glyph-name="infinity" unicode="&#x221e;" horiz-adv-x="711" 
d="M666 290v-1q0 -66 -42 -107.5t-100 -41.5q-42 0 -80 25t-87 83q-45 -52 -83.5 -80t-89.5 -28q-57 0 -98 42t-41 103q0 64 41.5 106t103.5 42q48 0 87.5 -28t82.5 -80q25 29 36 40t35 31.5t48 28.5t52 8q59 0 97 -39.5t38 -103.5zM190 187h2q14 0 28 5t24 10t25 18.5
t20.5 19t22 23t19.5 20.5q-24 29 -32.5 39.5t-29.5 30.5t-41 27.5t-43 7.5q-42 0 -66 -30t-24 -74q0 -41 27 -69t68 -28zM525 388h-1q-17 0 -33.5 -6.5t-33 -20t-26.5 -23t-26 -28t-20 -22.5q49 -56 78.5 -78.5t63.5 -22.5q40 0 64.5 30t24.5 68q0 47 -25.5 75t-65.5 28z
" />
    <glyph glyph-name="integral" unicode="&#x222b;" horiz-adv-x="334" 
d="M314 840l-11 -55q-18 9 -32 9q-27 0 -45 -25q-29 -38 -29 -176q0 -77 6 -247t6 -253q0 -137 -38 -202q-30 -52 -95 -52q-35 0 -59 15l13 57q18 -10 38 -10q27 0 41 23q29 41 29 169q0 84 -6 256t-6 251q0 156 49 212q35 40 90 40q25 0 49 -12z" />
    <glyph glyph-name="approxequal" unicode="&#x2248;" horiz-adv-x="497" 
d="M426 422l31 -26q-42 -91 -116 -91q-39 0 -103 38q-53 32 -82 32q-28 0 -47 -18t-38 -51l-32 25q43 91 123 91q15 0 32 -4.5t24.5 -8t25 -14t18.5 -10.5q4 -2 12.5 -7.5t12 -7.5t11 -5.5t12 -5t10.5 -4t12 -3t12 -0.5q44 0 82 70zM426 263l31 -25q-44 -91 -116 -91
q-39 0 -103 38q-55 32 -81 32q-28 0 -47 -18t-39 -52l-32 25q43 92 123 92q16 0 32.5 -4.5t24.5 -8.5t24.5 -13.5t18.5 -10.5q3 -2 12 -7t12 -7t10.5 -6t12 -5.5t11 -3.5t12.5 -3t12 -1q25 0 43.5 17t38.5 52z" />
    <glyph glyph-name="notequal" unicode="&#x2260;" horiz-adv-x="497" 
d="M355 485l-39 -87h134v-50h-152l-59 -131h211v-49h-229l-47 -105l-38 16l39 89h-130v49h149l58 131h-207v50h226l45 103z" />
    <glyph glyph-name="lessequal" unicode="&#x2264;" horiz-adv-x="497" 
d="M448 104l-398 211v51l398 211v-60l-347 -175v-2l347 -176v-60zM451 15h-405v51h405v-51z" />
    <glyph glyph-name="greaterequal" unicode="&#x2265;" horiz-adv-x="497" 
d="M52 577l397 -211v-51l-397 -211v60l346 175v2l-346 176v60zM451 15h-404v51h404v-51z" />
    <glyph glyph-name="lozenge" unicode="&#x25ca;" horiz-adv-x="514" 
d="M464 348l-178 -388h-62l-175 388l178 388h62zM395 346l-120 266q-11 27 -17 56h-3q-10 -38 -17 -56l-120 -262l121 -269q10 -26 15 -54h4q8 37 16 53z" />
    <hkern u1="&#x20;" u2="&#x201c;" k="37" />
    <hkern u1="&#x20;" u2="&#x2018;" k="37" />
    <hkern u1="&#x2c;" u2="&#x201d;" k="37" />
    <hkern u1="&#x2c;" u2="&#x2019;" k="37" />
    <hkern u1="&#x2c;" u2="&#x20;" k="37" />
    <hkern u1="&#x2e;" u2="&#x20;" k="37" />
    <hkern u1="&#x3a;" u2="&#x20;" k="37" />
    <hkern u1="F" u2="&#xeb;" k="18" />
    <hkern u1="F" u2="&#xe4;" k="15" />
    <hkern u1="F" u2="&#xe3;" k="15" />
    <hkern u1="F" u2="&#xe0;" k="15" />
    <hkern u1="P" u2="&#xe4;" k="9" />
    <hkern u1="T" u2="&#xfc;" k="37" />
    <hkern u1="T" u2="&#xf6;" k="37" />
    <hkern u1="T" u2="&#xf2;" k="37" />
    <hkern u1="T" u2="&#xee;" k="-4" />
    <hkern u1="T" u2="&#xed;" k="9" />
    <hkern u1="T" u2="&#xec;" k="-9" />
    <hkern u1="T" u2="&#xeb;" k="37" />
    <hkern u1="T" u2="&#xea;" k="56" />
    <hkern u1="T" u2="&#xe8;" k="56" />
    <hkern u1="T" u2="&#xe5;" k="37" />
    <hkern u1="T" u2="&#xe4;" k="19" />
    <hkern u1="T" u2="&#xe3;" k="37" />
    <hkern u1="T" u2="&#xe2;" k="37" />
    <hkern u1="T" u2="&#xe0;" k="37" />
    <hkern u1="V" u2="&#xf6;" k="9" />
    <hkern u1="V" u2="&#xf4;" k="14" />
    <hkern u1="V" u2="&#xeb;" k="9" />
    <hkern u1="V" u2="&#xea;" k="9" />
    <hkern u1="V" u2="&#xe8;" k="9" />
    <hkern u1="V" u2="&#xe5;" k="9" />
    <hkern u1="V" u2="&#xe4;" k="9" />
    <hkern u1="V" u2="&#xe3;" k="9" />
    <hkern u1="V" u2="&#xe2;" k="9" />
    <hkern u1="V" u2="&#xe0;" k="9" />
    <hkern u1="W" u2="&#xf6;" k="14" />
    <hkern u1="W" u2="&#xea;" k="14" />
    <hkern u1="W" u2="&#xe4;" k="14" />
    <hkern u1="Y" u2="&#xfc;" k="45" />
    <hkern u1="Y" u2="&#xf6;" k="56" />
    <hkern u1="&#x2018;" u2="&#x2018;" k="83" />
    <hkern u1="&#x2019;" u2="&#x2019;" k="83" />
    <hkern u1="&#x201d;" u2="&#x20;" k="37" />
    <hkern g1="A,Agrave,Aacute,Acircumflex,Atilde,Adieresis,Aring"
	g2="p"
	k="-10" />
    <hkern g1="A,Agrave,Aacute,Acircumflex,Atilde,Adieresis,Aring"
	g2="Q"
	k="-10" />
    <hkern g1="A,Agrave,Aacute,Acircumflex,Atilde,Adieresis,Aring"
	g2="T"
	k="55" />
    <hkern g1="A,Agrave,Aacute,Acircumflex,Atilde,Adieresis,Aring"
	g2="V"
	k="20" />
    <hkern g1="A,Agrave,Aacute,Acircumflex,Atilde,Adieresis,Aring"
	g2="W"
	k="20" />
    <hkern g1="A,Agrave,Aacute,Acircumflex,Atilde,Adieresis,Aring"
	g2="Y,Yacute,Ydieresis"
	k="55" />
    <hkern g1="A,Agrave,Aacute,Acircumflex,Atilde,Adieresis,Aring"
	g2="quotedblright"
	k="55" />
    <hkern g1="A,Agrave,Aacute,Acircumflex,Atilde,Adieresis,Aring"
	g2="quoteright"
	k="55" />
    <hkern g1="c,ccedilla"
	g2="l,lslash"
	k="20" />
    <hkern g1="c,ccedilla"
	g2="y,yacute,ydieresis"
	k="20" />
    <hkern g1="d,dotlessi"
	g2="y,yacute,ydieresis"
	k="-10" />
    <hkern g1="D,Eth"
	g2="Y,Yacute,Ydieresis"
	k="20" />
    <hkern g1="f,fi,fl"
	g2="quotedblright"
	k="-18" />
    <hkern g1="f,fi,fl"
	g2="quoteright"
	k="-18" />
    <hkern g1="F"
	g2="a,agrave,aacute,acircumflex,atilde,adieresis,aring,ae"
	k="20" />
    <hkern g1="F"
	g2="A,Agrave,Aacute,Acircumflex,Atilde,Adieresis,Aring,AE"
	k="54" />
    <hkern g1="F"
	g2="e,egrave,eacute,ecircumflex,edieresis"
	k="24" />
    <hkern g1="F"
	g2="i,igrave,iacute,icircumflex,idieresis"
	k="18" />
    <hkern g1="F"
	g2="o,ograve,oacute,ocircumflex,otilde,odieresis,oslash,oe"
	k="20" />
    <hkern g1="F"
	g2="r"
	k="20" />
    <hkern g1="F"
	g2="comma"
	k="111" />
    <hkern g1="F"
	g2="period"
	k="111" />
    <hkern g1="g"
	g2="y,yacute,ydieresis"
	k="-10" />
    <hkern g1="K"
	g2="y,yacute,ydieresis"
	k="10" />
    <hkern g1="K"
	g2="o,ograve,oacute,ocircumflex,otilde,odieresis,oslash,oe"
	k="20" />
    <hkern g1="K"
	g2="u,ugrave,uacute,ucircumflex,udieresis"
	k="20" />
    <hkern g1="l,lslash"
	g2="w"
	k="-10" />
    <hkern g1="L,Lslash"
	g2="T"
	k="94" />
    <hkern g1="L,Lslash"
	g2="V"
	k="74" />
    <hkern g1="L,Lslash"
	g2="W"
	k="74" />
    <hkern g1="L,Lslash"
	g2="Y,Yacute,Ydieresis"
	k="92" />
    <hkern g1="L,Lslash"
	g2="quotedblright"
	k="92" />
    <hkern g1="L,Lslash"
	g2="quoteright"
	k="92" />
    <hkern g1="L,Lslash"
	g2="y,yacute,ydieresis"
	k="37" />
    <hkern g1="n,ntilde"
	g2="y,yacute,ydieresis"
	k="-10" />
    <hkern g1="o,ograve,oacute,ocircumflex,otilde,odieresis,oslash,oe"
	g2="w"
	k="-10" />
    <hkern g1="o,ograve,oacute,ocircumflex,otilde,odieresis,oslash,oe"
	g2="y,yacute,ydieresis"
	k="-10" />
    <hkern g1="O,Ograve,Oacute,Ocircumflex,Otilde,Odieresis,Oslash,OE"
	g2="Y,Yacute,Ydieresis"
	k="24" />
    <hkern g1="O,Ograve,Oacute,Ocircumflex,Otilde,Odieresis,Oslash,OE"
	g2="X"
	k="24" />
    <hkern g1="P"
	g2="a,agrave,aacute,acircumflex,atilde,adieresis,aring,ae"
	k="18" />
    <hkern g1="P"
	g2="A,Agrave,Aacute,Acircumflex,Atilde,Adieresis,Aring,AE"
	k="37" />
    <hkern g1="P"
	g2="e,egrave,eacute,ecircumflex,edieresis"
	k="18" />
    <hkern g1="P"
	g2="o,ograve,oacute,ocircumflex,otilde,odieresis,oslash,oe"
	k="18" />
    <hkern g1="P"
	g2="comma"
	k="129" />
    <hkern g1="P"
	g2="period"
	k="129" />
    <hkern g1="r"
	g2="v"
	k="-18" />
    <hkern g1="r"
	g2="y,yacute,ydieresis"
	k="-18" />
    <hkern g1="r"
	g2="comma"
	k="74" />
    <hkern g1="r"
	g2="period"
	k="74" />
    <hkern g1="r"
	g2="hyphen"
	k="37" />
    <hkern g1="R"
	g2="T"
	k="18" />
    <hkern g1="R"
	g2="W"
	k="-20" />
    <hkern g1="R"
	g2="Y,Yacute,Ydieresis"
	k="18" />
    <hkern g1="R"
	g2="U,Ugrave,Uacute,Ucircumflex,Udieresis"
	k="-20" />
    <hkern g1="s,germandbls,scaron"
	g2="w"
	k="-10" />
    <hkern g1="T"
	g2="w"
	k="74" />
    <hkern g1="T"
	g2="y,yacute,ydieresis"
	k="55" />
    <hkern g1="T"
	g2="a,agrave,aacute,acircumflex,atilde,adieresis,aring,ae"
	k="74" />
    <hkern g1="T"
	g2="A,Agrave,Aacute,Acircumflex,Atilde,Adieresis,Aring,AE"
	k="55" />
    <hkern g1="T"
	g2="e,egrave,eacute,ecircumflex,edieresis"
	k="74" />
    <hkern g1="T"
	g2="i,igrave,iacute,icircumflex,idieresis"
	k="18" />
    <hkern g1="T"
	g2="o,ograve,oacute,ocircumflex,otilde,odieresis,oslash,oe"
	k="74" />
    <hkern g1="T"
	g2="r"
	k="74" />
    <hkern g1="T"
	g2="comma"
	k="92" />
    <hkern g1="T"
	g2="period"
	k="92" />
    <hkern g1="T"
	g2="u,ugrave,uacute,ucircumflex,udieresis"
	k="74" />
    <hkern g1="T"
	g2="hyphen"
	k="55" />
    <hkern g1="T"
	g2="colon"
	k="74" />
    <hkern g1="T"
	g2="semicolon"
	k="74" />
    <hkern g1="v"
	g2="comma"
	k="55" />
    <hkern g1="v"
	g2="period"
	k="55" />
    <hkern g1="V"
	g2="a,agrave,aacute,acircumflex,atilde,adieresis,aring,ae"
	k="18" />
    <hkern g1="V"
	g2="A,Agrave,Aacute,Acircumflex,Atilde,Adieresis,Aring,AE"
	k="37" />
    <hkern g1="V"
	g2="e,egrave,eacute,ecircumflex,edieresis"
	k="18" />
    <hkern g1="V"
	g2="o,ograve,oacute,ocircumflex,otilde,odieresis,oslash,oe"
	k="18" />
    <hkern g1="V"
	g2="comma"
	k="92" />
    <hkern g1="V"
	g2="period"
	k="92" />
    <hkern g1="V"
	g2="u,ugrave,uacute,ucircumflex,udieresis"
	k="18" />
    <hkern g1="V"
	g2="hyphen"
	k="18" />
    <hkern g1="V"
	g2="colon"
	k="18" />
    <hkern g1="V"
	g2="semicolon"
	k="18" />
    <hkern g1="w"
	g2="comma"
	k="37" />
    <hkern g1="w"
	g2="period"
	k="37" />
    <hkern g1="W"
	g2="a,agrave,aacute,acircumflex,atilde,adieresis,aring,ae"
	k="18" />
    <hkern g1="W"
	g2="A,Agrave,Aacute,Acircumflex,Atilde,Adieresis,Aring,AE"
	k="18" />
    <hkern g1="W"
	g2="e,egrave,eacute,ecircumflex,edieresis"
	k="18" />
    <hkern g1="W"
	g2="o,ograve,oacute,ocircumflex,otilde,odieresis,oslash,oe"
	k="18" />
    <hkern g1="W"
	g2="comma"
	k="74" />
    <hkern g1="W"
	g2="period"
	k="74" />
    <hkern g1="W"
	g2="hyphen"
	k="18" />
    <hkern g1="y,yacute,ydieresis"
	g2="a,agrave,aacute,acircumflex,atilde,adieresis,aring,ae"
	k="-10" />
    <hkern g1="y,yacute,ydieresis"
	g2="comma"
	k="55" />
    <hkern g1="y,yacute,ydieresis"
	g2="period"
	k="55" />
    <hkern g1="Y,Yacute,Ydieresis"
	g2="a,agrave,aacute,acircumflex,atilde,adieresis,aring,ae"
	k="75" />
    <hkern g1="Y,Yacute,Ydieresis"
	g2="A,Agrave,Aacute,Acircumflex,Atilde,Adieresis,Aring,AE"
	k="55" />
    <hkern g1="Y,Yacute,Ydieresis"
	g2="e,egrave,eacute,ecircumflex,edieresis"
	k="75" />
    <hkern g1="Y,Yacute,Ydieresis"
	g2="i,igrave,iacute,icircumflex,idieresis"
	k="30" />
    <hkern g1="Y,Yacute,Ydieresis"
	g2="o,ograve,oacute,ocircumflex,otilde,odieresis,oslash,oe"
	k="75" />
    <hkern g1="Y,Yacute,Ydieresis"
	g2="comma"
	k="111" />
    <hkern g1="Y,Yacute,Ydieresis"
	g2="period"
	k="111" />
    <hkern g1="Y,Yacute,Ydieresis"
	g2="u,ugrave,uacute,ucircumflex,udieresis"
	k="60" />
    <hkern g1="Y,Yacute,Ydieresis"
	g2="hyphen"
	k="74" />
    <hkern g1="Y,Yacute,Ydieresis"
	g2="colon"
	k="37" />
    <hkern g1="Y,Yacute,Ydieresis"
	g2="semicolon"
	k="37" />
    <hkern g1="quoteright"
	g2="s,scaron"
	k="55" />
    <hkern g1="space"
	g2="T"
	k="37" />
    <hkern g1="space"
	g2="V"
	k="37" />
    <hkern g1="space"
	g2="W"
	k="37" />
    <hkern g1="space"
	g2="Y,Yacute,Ydieresis"
	k="37" />
    <hkern g1="space"
	g2="A,Agrave,Aacute,Acircumflex,Atilde,Adieresis,Aring,AE"
	k="37" />
  </font>
</defs></svg>
